#--- *region name*					*selection string* ---#
ZZ4L_VR							;(  (passEventCleaning && passTrigger && isTrigMatched) && (@lepton_pt.size()==4) && (total_charge==0) && ((lepton_ID[0]!=-lepton_ID[1] || Mll01>12e3) && (lepton_ID[0]!=-lepton_ID[2] || Mll02>12e3) && (lepton_ID[0]!=-lepton_ID[3] || Mll03>12e3) && (lepton_ID[1]!=-lepton_ID[2] || Mll12>12e3) && (lepton_ID[1]!=-lepton_ID[3] || Mll13>12e3) && (lepton_ID[2]!=-lepton_ID[3] || Mll23>12e3)) && (lepton_pt[3]/1000.>10.) && ((lepton_ID[0]==-lepton_ID[1] && abs(Mll01-91.2e3)<10e3 && (lepton_ID[2]==-lepton_ID[3])) || (lepton_ID[0]==-lepton_ID[2] && abs(Mll02-91.2e3)<10e3 && (lepton_ID[1]==-lepton_ID[3])) || (lepton_ID[0]==-lepton_ID[3] && abs(Mll03-91.2e3)<10e3 && (lepton_ID[1]==-lepton_ID[2])) || (lepton_ID[1]==-lepton_ID[2] && abs(Mll12-91.2e3)<10e3 && (lepton_ID[0]==-lepton_ID[3])) || (lepton_ID[1]==-lepton_ID[3] && abs(Mll13-91.2e3)<10e3 && (lepton_ID[0]==-lepton_ID[2])) || (lepton_ID[2]==-lepton_ID[3] && abs(Mll23-91.2e3)<10e3 && (lepton_ID[0]==-lepton_ID[1]))) && (lepton_isolationFixedCutLoose[0] && lepton_isolationFixedCutLoose[1] && lepton_isolationFixedCutLoose[2] && lepton_isolationFixedCutLoose[3])  )
########################################
########################################
########################################
##---- 3l pre-MVA ----#
### 3L_preMVA						;(  (passEventCleaning && passTrigger && isTrigMatched) && (@lepton_pt.size()==3) && (abs(total_charge)==1) && ((lepton_ID[0]!=-lepton_ID[1] || Mll01>12e3) && (lepton_ID[0]!=-lepton_ID[2] || Mll02>12e3) && (lepton_ID[1]!=-lepton_ID[2] || Mll12>12e3)) && ((lepton_ID[0]==-lepton_ID[1] && abs(Mll01-91.2e3)<10e3) || (lepton_ID[0]==-lepton_ID[2] && abs(Mll02-91.2e3)<10e3) || (lepton_ID[1]==-lepton_ID[2] && abs(Mll12-91.2e3)<10e3)) && ( (Mll12==best_Z_Mll && lepton_isTightLH[0] && lepton_ambiguityType[0]==0 && lepton_isolationFixedCutLoose[0] && ((lepton_PromptLeptonVeto[0]<-0.7 && abs(lepton_ID[0])==11) || (lepton_PromptLeptonVeto[0]<-0.5 && abs(lepton_ID[0])==13))) || (Mll02==best_Z_Mll && lepton_isTightLH[1] && lepton_ambiguityType[1]==0 && lepton_isolationFixedCutLoose[1] && ((lepton_PromptLeptonVeto[1]<-0.7 && abs(lepton_ID[1])==11) || (lepton_PromptLeptonVeto[1]<-0.5 && abs(lepton_ID[1])==13))) || (Mll01==best_Z_Mll && lepton_isTightLH[2] && lepton_ambiguityType[2]==0 && lepton_isolationFixedCutLoose[2] && ((lepton_PromptLeptonVeto[2]<-0.7 && abs(lepton_ID[2])==11) || (lepton_PromptLeptonVeto[2]<-0.5 && abs(lepton_ID[2])==13))) ) && (@jet_pt.size()!=0) && (nJets_mv2c10_70==0) && (lepton_pt[2]/1000.>15.) && ((HT_lep+HT_had)/1000.)>200.  )
##---- 3l signal regions ----#
##---- 3l1j ----#
### v6_3L1j_MVAinputs					;(  (passEventCleaning && passTrigger && isTrigMatched) && (@lepton_pt.size()==3) && (abs(total_charge)==1) && ((lepton_ID[0]!=-lepton_ID[1] || Mll01>12e3) && (lepton_ID[0]!=-lepton_ID[2] || Mll02>12e3) && (lepton_ID[1]!=-lepton_ID[2] || Mll12>12e3)) && ((lepton_ID[0]==-lepton_ID[1] && abs(Mll01-91.2e3)<10e3) || (lepton_ID[0]==-lepton_ID[2] && abs(Mll02-91.2e3)<10e3) || (lepton_ID[1]==-lepton_ID[2] && abs(Mll12-91.2e3)<10e3)) && ( (Mll12==best_Z_Mll && lepton_isTightLH[0] && lepton_ambiguityType[0]==0 && lepton_isolationFixedCutLoose[0] && ((lepton_PromptLeptonVeto[0]<-0.7 && abs(lepton_ID[0])==11) || (lepton_PromptLeptonVeto[0]<-0.5 && abs(lepton_ID[0])==13))) || (Mll02==best_Z_Mll && lepton_isTightLH[1] && lepton_ambiguityType[1]==0 && lepton_isolationFixedCutLoose[1] && ((lepton_PromptLeptonVeto[1]<-0.7 && abs(lepton_ID[1])==11) || (lepton_PromptLeptonVeto[1]<-0.5 && abs(lepton_ID[1])==13))) || (Mll01==best_Z_Mll && lepton_isTightLH[2] && lepton_ambiguityType[2]==0 && lepton_isolationFixedCutLoose[2] && ((lepton_PromptLeptonVeto[2]<-0.7 && abs(lepton_ID[2])==11) || (lepton_PromptLeptonVeto[2]<-0.5 && abs(lepton_ID[2])==13))) ) && (@jet_pt.size()!=0) && (nJets_mv2c10_70==0) && (lepton_pt[2]/1000.>15.) && ((HT_lep+HT_had)/1000.)>200. && (@jet_pt.size()==1)  )
##---- 3l2j ----#
### v6_3L2j_MVAinputs					;(  (passEventCleaning && passTrigger && isTrigMatched) && (@lepton_pt.size()==3) && (abs(total_charge)==1) && ((lepton_ID[0]!=-lepton_ID[1] || Mll01>12e3) && (lepton_ID[0]!=-lepton_ID[2] || Mll02>12e3) && (lepton_ID[1]!=-lepton_ID[2] || Mll12>12e3)) && ((lepton_ID[0]==-lepton_ID[1] && abs(Mll01-91.2e3)<10e3) || (lepton_ID[0]==-lepton_ID[2] && abs(Mll02-91.2e3)<10e3) || (lepton_ID[1]==-lepton_ID[2] && abs(Mll12-91.2e3)<10e3)) && ( (Mll12==best_Z_Mll && lepton_isTightLH[0] && lepton_ambiguityType[0]==0 && lepton_isolationFixedCutLoose[0] && ((lepton_PromptLeptonVeto[0]<-0.7 && abs(lepton_ID[0])==11) || (lepton_PromptLeptonVeto[0]<-0.5 && abs(lepton_ID[0])==13))) || (Mll02==best_Z_Mll && lepton_isTightLH[1] && lepton_ambiguityType[1]==0 && lepton_isolationFixedCutLoose[1] && ((lepton_PromptLeptonVeto[1]<-0.7 && abs(lepton_ID[1])==11) || (lepton_PromptLeptonVeto[1]<-0.5 && abs(lepton_ID[1])==13))) || (Mll01==best_Z_Mll && lepton_isTightLH[2] && lepton_ambiguityType[2]==0 && lepton_isolationFixedCutLoose[2] && ((lepton_PromptLeptonVeto[2]<-0.7 && abs(lepton_ID[2])==11) || (lepton_PromptLeptonVeto[2]<-0.5 && abs(lepton_ID[2])==13))) ) && (@jet_pt.size()!=0) && (nJets_mv2c10_70==0) && (lepton_pt[2]/1000.>15.) && ((HT_lep+HT_had)/1000.)>200. && (@jet_pt.size()==2)  )
##---- 3l3j ----#
### v6_3L3j_MVAinputs					;(  (passEventCleaning && passTrigger && isTrigMatched) && (@lepton_pt.size()==3) && (abs(total_charge)==1) && ((lepton_ID[0]!=-lepton_ID[1] || Mll01>12e3) && (lepton_ID[0]!=-lepton_ID[2] || Mll02>12e3) && (lepton_ID[1]!=-lepton_ID[2] || Mll12>12e3)) && ((lepton_ID[0]==-lepton_ID[1] && abs(Mll01-91.2e3)<10e3) || (lepton_ID[0]==-lepton_ID[2] && abs(Mll02-91.2e3)<10e3) || (lepton_ID[1]==-lepton_ID[2] && abs(Mll12-91.2e3)<10e3)) && ( (Mll12==best_Z_Mll && lepton_isTightLH[0] && lepton_ambiguityType[0]==0 && lepton_isolationFixedCutLoose[0] && ((lepton_PromptLeptonVeto[0]<-0.7 && abs(lepton_ID[0])==11) || (lepton_PromptLeptonVeto[0]<-0.5 && abs(lepton_ID[0])==13))) || (Mll02==best_Z_Mll && lepton_isTightLH[1] && lepton_ambiguityType[1]==0 && lepton_isolationFixedCutLoose[1] && ((lepton_PromptLeptonVeto[1]<-0.7 && abs(lepton_ID[1])==11) || (lepton_PromptLeptonVeto[1]<-0.5 && abs(lepton_ID[1])==13))) || (Mll01==best_Z_Mll && lepton_isTightLH[2] && lepton_ambiguityType[2]==0 && lepton_isolationFixedCutLoose[2] && ((lepton_PromptLeptonVeto[2]<-0.7 && abs(lepton_ID[2])==11) || (lepton_PromptLeptonVeto[2]<-0.5 && abs(lepton_ID[2])==13))) ) && (@jet_pt.size()!=0) && (nJets_mv2c10_70==0) && (lepton_pt[2]/1000.>15.) && ((HT_lep+HT_had)/1000.)>200. && (@jet_pt.size()>2)  )
##---- 3l pre-selection ----#
### ValPlots_3lpresel					;(  (passEventCleaning && passTrigger && isTrigMatched) && (@lepton_pt.size()==3) && (abs(total_charge)==1) && ((lepton_ID[0]!=-lepton_ID[1] || Mll01>12e3) && (lepton_ID[0]!=-lepton_ID[2] || Mll02>12e3) && (lepton_ID[1]!=-lepton_ID[2] || Mll12>12e3)) && ((lepton_ID[0]==-lepton_ID[1] && abs(Mll01-91.2e3)<10e3) || (lepton_ID[0]==-lepton_ID[2] && abs(Mll02-91.2e3)<10e3) || (lepton_ID[1]==-lepton_ID[2] && abs(Mll12-91.2e3)<10e3)) && ( (Mll12==best_Z_Mll && lepton_isTightLH[0] && lepton_ambiguityType[0]==0 && lepton_isolationFixedCutLoose[0] && ((lepton_PromptLeptonVeto[0]<-0.7 && abs(lepton_ID[0])==11) || (lepton_PromptLeptonVeto[0]<-0.5 && abs(lepton_ID[0])==13))) || (Mll02==best_Z_Mll && lepton_isTightLH[1] && lepton_ambiguityType[1]==0 && lepton_isolationFixedCutLoose[1] && ((lepton_PromptLeptonVeto[1]<-0.7 && abs(lepton_ID[1])==11) || (lepton_PromptLeptonVeto[1]<-0.5 && abs(lepton_ID[1])==13))) || (Mll01==best_Z_Mll && lepton_isTightLH[2] && lepton_ambiguityType[2]==0 && lepton_isolationFixedCutLoose[2] && ((lepton_PromptLeptonVeto[2]<-0.7 && abs(lepton_ID[2])==11) || (lepton_PromptLeptonVeto[2]<-0.5 && abs(lepton_ID[2])==13))) ) && (@jet_pt.size()!=0) && (nJets_mv2c10_70==0) && (lepton_pt[2]/1000.>15.)  )
### ValPlots_201516_3lprese					;(  (passEventCleaning && passTrigger && isTrigMatched) && (@lepton_pt.size()==3) && (abs(total_charge)==1) && ((lepton_ID[0]!=-lepton_ID[1] || Mll01>12e3) && (lepton_ID[0]!=-lepton_ID[2] || Mll02>12e3) && (lepton_ID[1]!=-lepton_ID[2] || Mll12>12e3)) && ((lepton_ID[0]==-lepton_ID[1] && abs(Mll01-91.2e3)<10e3) || (lepton_ID[0]==-lepton_ID[2] && abs(Mll02-91.2e3)<10e3) || (lepton_ID[1]==-lepton_ID[2] && abs(Mll12-91.2e3)<10e3)) && ( (Mll12==best_Z_Mll && lepton_isTightLH[0] && lepton_ambiguityType[0]==0 && lepton_isolationFixedCutLoose[0] && ((lepton_PromptLeptonVeto[0]<-0.7 && abs(lepton_ID[0])==11) || (lepton_PromptLeptonVeto[0]<-0.5 && abs(lepton_ID[0])==13))) || (Mll02==best_Z_Mll && lepton_isTightLH[1] && lepton_ambiguityType[1]==0 && lepton_isolationFixedCutLoose[1] && ((lepton_PromptLeptonVeto[1]<-0.7 && abs(lepton_ID[1])==11) || (lepton_PromptLeptonVeto[1]<-0.5 && abs(lepton_ID[1])==13))) || (Mll01==best_Z_Mll && lepton_isTightLH[2] && lepton_ambiguityType[2]==0 && lepton_isolationFixedCutLoose[2] && ((lepton_PromptLeptonVeto[2]<-0.7 && abs(lepton_ID[2])==11) || (lepton_PromptLeptonVeto[2]<-0.5 && abs(lepton_ID[2])==13))) ) && (@jet_pt.size()!=0) && (nJets_mv2c10_70==0) && (lepton_pt[2]/1000.>15.) && (RunYear<2016.5)  )
### ValPlots_2017_3lpresel					;(  (passEventCleaning && passTrigger && isTrigMatched) && (@lepton_pt.size()==3) && (abs(total_charge)==1) && ((lepton_ID[0]!=-lepton_ID[1] || Mll01>12e3) && (lepton_ID[0]!=-lepton_ID[2] || Mll02>12e3) && (lepton_ID[1]!=-lepton_ID[2] || Mll12>12e3)) && ((lepton_ID[0]==-lepton_ID[1] && abs(Mll01-91.2e3)<10e3) || (lepton_ID[0]==-lepton_ID[2] && abs(Mll02-91.2e3)<10e3) || (lepton_ID[1]==-lepton_ID[2] && abs(Mll12-91.2e3)<10e3)) && ( (Mll12==best_Z_Mll && lepton_isTightLH[0] && lepton_ambiguityType[0]==0 && lepton_isolationFixedCutLoose[0] && ((lepton_PromptLeptonVeto[0]<-0.7 && abs(lepton_ID[0])==11) || (lepton_PromptLeptonVeto[0]<-0.5 && abs(lepton_ID[0])==13))) || (Mll02==best_Z_Mll && lepton_isTightLH[1] && lepton_ambiguityType[1]==0 && lepton_isolationFixedCutLoose[1] && ((lepton_PromptLeptonVeto[1]<-0.7 && abs(lepton_ID[1])==11) || (lepton_PromptLeptonVeto[1]<-0.5 && abs(lepton_ID[1])==13))) || (Mll01==best_Z_Mll && lepton_isTightLH[2] && lepton_ambiguityType[2]==0 && lepton_isolationFixedCutLoose[2] && ((lepton_PromptLeptonVeto[2]<-0.7 && abs(lepton_ID[2])==11) || (lepton_PromptLeptonVeto[2]<-0.5 && abs(lepton_ID[2])==13))) ) && (@jet_pt.size()!=0) && (nJets_mv2c10_70==0) && (lepton_pt[2]/1000.>15.) && (RunYear>2016.5)  )
### newStyle_v6_15GeV_3lpresel				;(  (passEventCleaning && passTrigger && isTrigMatched) && (@lepton_pt.size()==3) && (abs(total_charge)==1) && ((lepton_ID[0]!=-lepton_ID[1] || Mll01>12e3) && (lepton_ID[0]!=-lepton_ID[2] || Mll02>12e3) && (lepton_ID[1]!=-lepton_ID[2] || Mll12>12e3)) && ((lepton_ID[0]==-lepton_ID[1] && abs(Mll01-91.2e3)<10e3) || (lepton_ID[0]==-lepton_ID[2] && abs(Mll02-91.2e3)<10e3) || (lepton_ID[1]==-lepton_ID[2] && abs(Mll12-91.2e3)<10e3)) && ( (Mll12==best_Z_Mll && lepton_isTightLH[0] && lepton_ambiguityType[0]==0 && lepton_isolationFixedCutLoose[0] && ((lepton_PromptLeptonVeto[0]<-0.7 && abs(lepton_ID[0])==11) || (lepton_PromptLeptonVeto[0]<-0.5 && abs(lepton_ID[0])==13))) || (Mll02==best_Z_Mll && lepton_isTightLH[1] && lepton_ambiguityType[1]==0 && lepton_isolationFixedCutLoose[1] && ((lepton_PromptLeptonVeto[1]<-0.7 && abs(lepton_ID[1])==11) || (lepton_PromptLeptonVeto[1]<-0.5 && abs(lepton_ID[1])==13))) || (Mll01==best_Z_Mll && lepton_isTightLH[2] && lepton_ambiguityType[2]==0 && lepton_isolationFixedCutLoose[2] && ((lepton_PromptLeptonVeto[2]<-0.7 && abs(lepton_ID[2])==11) || (lepton_PromptLeptonVeto[2]<-0.5 && abs(lepton_ID[2])==13))) ) && (@jet_pt.size()!=0) && (nJets_mv2c10_70==0) && (lepton_pt[2]/1000.>15.)  )
### TEST_ATLASstyle					;(  (passEventCleaning && passTrigger && isTrigMatched) && (@lepton_pt.size()==3) && (abs(total_charge)==1) && ((lepton_ID[0]!=-lepton_ID[1] || Mll01>12e3) && (lepton_ID[0]!=-lepton_ID[2] || Mll02>12e3) && (lepton_ID[1]!=-lepton_ID[2] || Mll12>12e3)) && ((lepton_ID[0]==-lepton_ID[1] && abs(Mll01-91.2e3)<10e3) || (lepton_ID[0]==-lepton_ID[2] && abs(Mll02-91.2e3)<10e3) || (lepton_ID[1]==-lepton_ID[2] && abs(Mll12-91.2e3)<10e3)) && ( (Mll12==best_Z_Mll && lepton_isTightLH[0] && lepton_ambiguityType[0]==0 && lepton_isolationFixedCutLoose[0] && ((lepton_PromptLeptonVeto[0]<-0.7 && abs(lepton_ID[0])==11) || (lepton_PromptLeptonVeto[0]<-0.5 && abs(lepton_ID[0])==13))) || (Mll02==best_Z_Mll && lepton_isTightLH[1] && lepton_ambiguityType[1]==0 && lepton_isolationFixedCutLoose[1] && ((lepton_PromptLeptonVeto[1]<-0.7 && abs(lepton_ID[1])==11) || (lepton_PromptLeptonVeto[1]<-0.5 && abs(lepton_ID[1])==13))) || (Mll01==best_Z_Mll && lepton_isTightLH[2] && lepton_ambiguityType[2]==0 && lepton_isolationFixedCutLoose[2] && ((lepton_PromptLeptonVeto[2]<-0.7 && abs(lepton_ID[2])==11) || (lepton_PromptLeptonVeto[2]<-0.5 && abs(lepton_ID[2])==13))) ) && (@jet_pt.size()!=0) && (nJets_mv2c10_70==0) && (lepton_pt[2]/1000.>15.)  )
### v6_HT200_3lpresel						;(  (passEventCleaning && passTrigger && isTrigMatched) && (@lepton_pt.size()==3) && (abs(total_charge)==1) && ((lepton_ID[0]!=-lepton_ID[1] || Mll01>12e3) && (lepton_ID[0]!=-lepton_ID[2] || Mll02>12e3) && (lepton_ID[1]!=-lepton_ID[2] || Mll12>12e3)) && ((lepton_ID[0]==-lepton_ID[1] && abs(Mll01-91.2e3)<10e3) || (lepton_ID[0]==-lepton_ID[2] && abs(Mll02-91.2e3)<10e3) || (lepton_ID[1]==-lepton_ID[2] && abs(Mll12-91.2e3)<10e3)) && ( (Mll12==best_Z_Mll && lepton_isTightLH[0] && lepton_ambiguityType[0]==0 && lepton_isolationFixedCutLoose[0] && ((lepton_PromptLeptonVeto[0]<-0.7 && abs(lepton_ID[0])==11) || (lepton_PromptLeptonVeto[0]<-0.5 && abs(lepton_ID[0])==13))) || (Mll02==best_Z_Mll && lepton_isTightLH[1] && lepton_ambiguityType[1]==0 && lepton_isolationFixedCutLoose[1] && ((lepton_PromptLeptonVeto[1]<-0.7 && abs(lepton_ID[1])==11) || (lepton_PromptLeptonVeto[1]<-0.5 && abs(lepton_ID[1])==13))) || (Mll01==best_Z_Mll && lepton_isTightLH[2] && lepton_ambiguityType[2]==0 && lepton_isolationFixedCutLoose[2] && ((lepton_PromptLeptonVeto[2]<-0.7 && abs(lepton_ID[2])==11) || (lepton_PromptLeptonVeto[2]<-0.5 && abs(lepton_ID[2])==13))) ) && (@jet_pt.size()!=0) && (nJets_mv2c10_70==0) && (lepton_pt[2]/1000.>15.) && ((HT_lep+HT_had)/1000.)>200.  )
##---- Z+j 3l VR ----#
### Zj_VR							;(  (passEventCleaning && passTrigger && isTrigMatched) && (@lepton_pt.size()==3) && (abs(total_charge)==1) && ((lepton_ID[0]!=-lepton_ID[1] || Mll01>12e3) && (lepton_ID[0]!=-lepton_ID[2] || Mll02>12e3) && (lepton_ID[1]!=-lepton_ID[2] || Mll12>12e3)) && ((lepton_ID[0]==-lepton_ID[1] && abs(Mll01-91.2e3)<10e3) || (lepton_ID[0]==-lepton_ID[2] && abs(Mll02-91.2e3)<10e3) || (lepton_ID[1]==-lepton_ID[2] && abs(Mll12-91.2e3)<10e3)) && (@jet_pt.size()!=0) && (nJets_mv2c10_70==0) && ( (Mll12==best_Z_Mll && lepton_isTightLH[0] && lepton_ambiguityType[0]==0 && lepton_isolationFixedCutLoose[0] && ((lepton_PromptLeptonVeto[0]<-0.7 && abs(lepton_ID[0])==11) || (lepton_PromptLeptonVeto[0]<-0.5 && abs(lepton_ID[0])==13))) || (Mll02==best_Z_Mll && lepton_isTightLH[1] && lepton_ambiguityType[1]==0 && lepton_isolationFixedCutLoose[1] && ((lepton_PromptLeptonVeto[1]<-0.7 && abs(lepton_ID[1])==11) || (lepton_PromptLeptonVeto[1]<-0.5 && abs(lepton_ID[1])==13))) || (Mll01==best_Z_Mll && lepton_isTightLH[2] && lepton_ambiguityType[2]==0 && lepton_isolationFixedCutLoose[2] && ((lepton_PromptLeptonVeto[2]<-0.7 && abs(lepton_ID[2])==11) || (lepton_PromptLeptonVeto[2]<-0.5 && abs(lepton_ID[2])==13))) ) && (@jet_pt.size()==1) && (Mlll012/1000.<150.) && (lepton_pt[2]/1000.<15.)  )
### v6_onlyEle_m3l150_pT315_ONETIGHTTWOLOOSE_3l1j			;(  (passEventCleaning && passTrigger && isTrigMatched) && (@lepton_pt.size()==3) && (abs(total_charge)==1) && ((lepton_ID[0]!=-lepton_ID[1] || Mll01>12e3) && (lepton_ID[0]!=-lepton_ID[2] || Mll02>12e3) && (lepton_ID[1]!=-lepton_ID[2] || Mll12>12e3)) && ((lepton_ID[0]==-lepton_ID[1] && abs(Mll01-91.2e3)<10e3) || (lepton_ID[0]==-lepton_ID[2] && abs(Mll02-91.2e3)<10e3) || (lepton_ID[1]==-lepton_ID[2] && abs(Mll12-91.2e3)<10e3)) && (@jet_pt.size()!=0) && (nJets_mv2c10_70==0) && ( (Mll12==best_Z_Mll && lepton_isTightLH[0] && lepton_ambiguityType[0]==0 && lepton_isolationFixedCutLoose[0] && ((lepton_PromptLeptonVeto[0]<-0.7 && abs(lepton_ID[0])==11) || (lepton_PromptLeptonVeto[0]<-0.5 && abs(lepton_ID[0])==13))) || (Mll02==best_Z_Mll && lepton_isTightLH[1] && lepton_ambiguityType[1]==0 && lepton_isolationFixedCutLoose[1] && ((lepton_PromptLeptonVeto[1]<-0.7 && abs(lepton_ID[1])==11) || (lepton_PromptLeptonVeto[1]<-0.5 && abs(lepton_ID[1])==13))) || (Mll01==best_Z_Mll && lepton_isTightLH[2] && lepton_ambiguityType[2]==0 && lepton_isolationFixedCutLoose[2] && ((lepton_PromptLeptonVeto[2]<-0.7 && abs(lepton_ID[2])==11) || (lepton_PromptLeptonVeto[2]<-0.5 && abs(lepton_ID[2])==13))) ) && (@jet_pt.size()==1) && (Mlll012/1000.<150.) && (lepton_pt[2]/1000.<15.) && abs(lepton_ID[2])==11  )
### v7_onlyMu_m3l150_pT315_ONETIGHTTWOLOOSE_3l1j			;(  (passEventCleaning && passTrigger && isTrigMatched) && (@lepton_pt.size()==3) && (abs(total_charge)==1) && ((lepton_ID[0]!=-lepton_ID[1] || Mll01>12e3) && (lepton_ID[0]!=-lepton_ID[2] || Mll02>12e3) && (lepton_ID[1]!=-lepton_ID[2] || Mll12>12e3)) && ((lepton_ID[0]==-lepton_ID[1] && abs(Mll01-91.2e3)<10e3) || (lepton_ID[0]==-lepton_ID[2] && abs(Mll02-91.2e3)<10e3) || (lepton_ID[1]==-lepton_ID[2] && abs(Mll12-91.2e3)<10e3)) && (@jet_pt.size()!=0) && (nJets_mv2c10_70==0) && ( (Mll12==best_Z_Mll && lepton_isTightLH[0] && lepton_ambiguityType[0]==0 && lepton_isolationFixedCutLoose[0] && ((lepton_PromptLeptonVeto[0]<-0.7 && abs(lepton_ID[0])==11) || (lepton_PromptLeptonVeto[0]<-0.5 && abs(lepton_ID[0])==13))) || (Mll02==best_Z_Mll && lepton_isTightLH[1] && lepton_ambiguityType[1]==0 && lepton_isolationFixedCutLoose[1] && ((lepton_PromptLeptonVeto[1]<-0.7 && abs(lepton_ID[1])==11) || (lepton_PromptLeptonVeto[1]<-0.5 && abs(lepton_ID[1])==13))) || (Mll01==best_Z_Mll && lepton_isTightLH[2] && lepton_ambiguityType[2]==0 && lepton_isolationFixedCutLoose[2] && ((lepton_PromptLeptonVeto[2]<-0.7 && abs(lepton_ID[2])==11) || (lepton_PromptLeptonVeto[2]<-0.5 && abs(lepton_ID[2])==13))) ) && (@jet_pt.size()==1) && (Mlll012/1000.<150.) && (lepton_pt[2]/1000.<15.) && abs(lepton_ID[2])==13  )
### v6_onlyMu_m3l150_pT315_ONETIGHTTWOLOOSE_3l1j			;(  (passEventCleaning && passTrigger && isTrigMatched) && (@lepton_pt.size()==3) && (abs(total_charge)==1) && ((lepton_ID[0]!=-lepton_ID[1] || Mll01>12e3) && (lepton_ID[0]!=-lepton_ID[2] || Mll02>12e3) && (lepton_ID[1]!=-lepton_ID[2] || Mll12>12e3)) && ((lepton_ID[0]==-lepton_ID[1] && abs(Mll01-91.2e3)<10e3) || (lepton_ID[0]==-lepton_ID[2] && abs(Mll02-91.2e3)<10e3) || (lepton_ID[1]==-lepton_ID[2] && abs(Mll12-91.2e3)<10e3)) && (@jet_pt.size()!=0) && (nJets_mv2c10_70==0) && ( (Mll12==best_Z_Mll && lepton_isTightLH[0] && lepton_ambiguityType[0]==0 && lepton_isolationFixedCutLoose[0] && ((lepton_PromptLeptonVeto[0]<-0.7 && abs(lepton_ID[0])==11) || (lepton_PromptLeptonVeto[0]<-0.5 && abs(lepton_ID[0])==13))) || (Mll02==best_Z_Mll && lepton_isTightLH[1] && lepton_ambiguityType[1]==0 && lepton_isolationFixedCutLoose[1] && ((lepton_PromptLeptonVeto[1]<-0.7 && abs(lepton_ID[1])==11) || (lepton_PromptLeptonVeto[1]<-0.5 && abs(lepton_ID[1])==13))) || (Mll01==best_Z_Mll && lepton_isTightLH[2] && lepton_ambiguityType[2]==0 && lepton_isolationFixedCutLoose[2] && ((lepton_PromptLeptonVeto[2]<-0.7 && abs(lepton_ID[2])==11) || (lepton_PromptLeptonVeto[2]<-0.5 && abs(lepton_ID[2])==13))) ) && (@jet_pt.size()==1) && (Mlll012/1000.<150.) && (lepton_pt[2]/1000.<15.) && abs(lepton_ID[2])==13  )
### v6_m3l150_ONETIGHTTWOLOOSE_3l1j					;(  (passEventCleaning && passTrigger && isTrigMatched) && (@lepton_pt.size()==3) && (abs(total_charge)==1) && ((lepton_ID[0]!=-lepton_ID[1] || Mll01>12e3) && (lepton_ID[0]!=-lepton_ID[2] || Mll02>12e3) && (lepton_ID[1]!=-lepton_ID[2] || Mll12>12e3)) && ((lepton_ID[0]==-lepton_ID[1] && abs(Mll01-91.2e3)<10e3) || (lepton_ID[0]==-lepton_ID[2] && abs(Mll02-91.2e3)<10e3) || (lepton_ID[1]==-lepton_ID[2] && abs(Mll12-91.2e3)<10e3)) && (@jet_pt.size()!=0) && (nJets_mv2c10_70==0) && ( (Mll12==best_Z_Mll && lepton_isTightLH[0] && lepton_ambiguityType[0]==0 && lepton_isolationFixedCutLoose[0] && ((lepton_PromptLeptonVeto[0]<-0.7 && abs(lepton_ID[0])==11) || (lepton_PromptLeptonVeto[0]<-0.5 && abs(lepton_ID[0])==13))) || (Mll02==best_Z_Mll && lepton_isTightLH[1] && lepton_ambiguityType[1]==0 && lepton_isolationFixedCutLoose[1] && ((lepton_PromptLeptonVeto[1]<-0.7 && abs(lepton_ID[1])==11) || (lepton_PromptLeptonVeto[1]<-0.5 && abs(lepton_ID[1])==13))) || (Mll01==best_Z_Mll && lepton_isTightLH[2] && lepton_ambiguityType[2]==0 && lepton_isolationFixedCutLoose[2] && ((lepton_PromptLeptonVeto[2]<-0.7 && abs(lepton_ID[2])==11) || (lepton_PromptLeptonVeto[2]<-0.5 && abs(lepton_ID[2])==13))) ) && (@jet_pt.size()==1) && (Mlll012/1000.<150.)  )
### YESREW_4L_preMVA_NJETS					;(  (passEventCleaning && passTrigger && isTrigMatched) && (@lepton_pt.size()==4) && (total_charge==0) && ((lepton_ID[0]!=-lepton_ID[1] || Mll01>12e3) && (lepton_ID[0]!=-lepton_ID[2] || Mll02>12e3) && (lepton_ID[0]!=-lepton_ID[3] || Mll03>12e3) && (lepton_ID[1]!=-lepton_ID[2] || Mll12>12e3) && (lepton_ID[1]!=-lepton_ID[3] || Mll13>12e3) && (lepton_ID[2]!=-lepton_ID[3] || Mll23>12e3)) && ((lepton_ID[0]==-lepton_ID[1] && abs(Mll01-91.2e3)<10e3) || (lepton_ID[0]==-lepton_ID[2] && abs(Mll02-91.2e3)<10e3) || (lepton_ID[0]==-lepton_ID[3] && abs(Mll03-91.2e3)<10e3) || (lepton_ID[1]==-lepton_ID[2] && abs(Mll12-91.2e3)<10e3) || (lepton_ID[1]==-lepton_ID[3] && abs(Mll13-91.2e3)<10e3) || (lepton_ID[2]==-lepton_ID[3] && abs(Mll23-91.2e3)<10e3)) && (nJets_mv2c10_70==0) && ( (lepton_isTightLH[2] && lepton_ambiguityType[2]==0 && lepton_isolationFixedCutLoose[2] && ((lepton_PromptLeptonVeto[2]<-0.7 && abs(lepton_ID[2])==11) || (lepton_PromptLeptonVeto[2]<-0.5 && abs(lepton_ID[2])==13))) && (lepton_isTightLH[3] && lepton_ambiguityType[3]==0 && lepton_isolationFixedCutLoose[3] && ((lepton_PromptLeptonVeto[3]<-0.7 && abs(lepton_ID[3])==11) || (lepton_PromptLeptonVeto[3]<-0.5 && abs(lepton_ID[3])==13))) ) && (lepton_pt[3]/1000.>15.)  )
##############################
##---- 4l signal regions ----#
##############################
### v6_firstBin_4L_DF_MVAinputs				;(  (passEventCleaning && passTrigger && isTrigMatched) && (@lepton_pt.size()==4) && (total_charge==0) && ((lepton_ID[0]!=-lepton_ID[1] || Mll01>12e3) && (lepton_ID[0]!=-lepton_ID[2] || Mll02>12e3) && (lepton_ID[0]!=-lepton_ID[3] || Mll03>12e3) && (lepton_ID[1]!=-lepton_ID[2] || Mll12>12e3) && (lepton_ID[1]!=-lepton_ID[3] || Mll13>12e3) && (lepton_ID[2]!=-lepton_ID[3] || Mll23>12e3)) && (lepton_pt[3]/1000.>10.) && ((lepton_ID[0]==-lepton_ID[1] && abs(Mll01-91.2e3)<10e3 && !(lepton_ID[2]==-lepton_ID[3])) || (lepton_ID[0]==-lepton_ID[2] && abs(Mll02-91.2e3)<10e3 && !(lepton_ID[1]==-lepton_ID[3])) || (lepton_ID[0]==-lepton_ID[3] && abs(Mll03-91.2e3)<10e3 && !(lepton_ID[1]==-lepton_ID[2])) || (lepton_ID[1]==-lepton_ID[2] && abs(Mll12-91.2e3)<10e3 && !(lepton_ID[0]==-lepton_ID[3])) || (lepton_ID[1]==-lepton_ID[3] && abs(Mll13-91.2e3)<10e3 && !(lepton_ID[0]==-lepton_ID[2])) || (lepton_ID[2]==-lepton_ID[3] && abs(Mll23-91.2e3)<10e3 && !(lepton_ID[0]==-lepton_ID[1]))) && (nJets_mv2c10_70==0) && (lepton_isTightLH[2] && lepton_ambiguityType[2]==0 && lepton_isolationFixedCutLoose[2] && ((lepton_PromptLeptonVeto[2]<-0.7 && abs(lepton_ID[2])==11) || (lepton_PromptLeptonVeto[2]<-0.5 && abs(lepton_ID[2])==13))) && (lepton_isTightLH[3] && lepton_ambiguityType[3]==0 && lepton_isolationFixedCutLoose[3] && ((lepton_PromptLeptonVeto[3]<-0.7 && abs(lepton_ID[3])==11) || (lepton_PromptLeptonVeto[3]<-0.5 && abs(lepton_ID[3])==13))) && (lepton_pt[3]/1000.>15.) && (BDT2<-0.266667)  )
### v6_4L_DF_MVAinputs						;(  (passEventCleaning && passTrigger && isTrigMatched) && (@lepton_pt.size()==4) && (total_charge==0) && ((lepton_ID[0]!=-lepton_ID[1] || Mll01>12e3) && (lepton_ID[0]!=-lepton_ID[2] || Mll02>12e3) && (lepton_ID[0]!=-lepton_ID[3] || Mll03>12e3) && (lepton_ID[1]!=-lepton_ID[2] || Mll12>12e3) && (lepton_ID[1]!=-lepton_ID[3] || Mll13>12e3) && (lepton_ID[2]!=-lepton_ID[3] || Mll23>12e3)) && (lepton_pt[3]/1000.>10.) && ((lepton_ID[0]==-lepton_ID[1] && abs(Mll01-91.2e3)<10e3 && !(lepton_ID[2]==-lepton_ID[3])) || (lepton_ID[0]==-lepton_ID[2] && abs(Mll02-91.2e3)<10e3 && !(lepton_ID[1]==-lepton_ID[3])) || (lepton_ID[0]==-lepton_ID[3] && abs(Mll03-91.2e3)<10e3 && !(lepton_ID[1]==-lepton_ID[2])) || (lepton_ID[1]==-lepton_ID[2] && abs(Mll12-91.2e3)<10e3 && !(lepton_ID[0]==-lepton_ID[3])) || (lepton_ID[1]==-lepton_ID[3] && abs(Mll13-91.2e3)<10e3 && !(lepton_ID[0]==-lepton_ID[2])) || (lepton_ID[2]==-lepton_ID[3] && abs(Mll23-91.2e3)<10e3 && !(lepton_ID[0]==-lepton_ID[1]))) && (nJets_mv2c10_70==0) && (lepton_isTightLH[2] && lepton_ambiguityType[2]==0 && lepton_isolationFixedCutLoose[2] && ((lepton_PromptLeptonVeto[2]<-0.7 && abs(lepton_ID[2])==11) || (lepton_PromptLeptonVeto[2]<-0.5 && abs(lepton_ID[2])==13))) && (lepton_isTightLH[3] && lepton_ambiguityType[3]==0 && lepton_isolationFixedCutLoose[3] && ((lepton_PromptLeptonVeto[3]<-0.7 && abs(lepton_ID[3])==11) || (lepton_PromptLeptonVeto[3]<-0.5 && abs(lepton_ID[3])==13))) && (lepton_pt[3]/1000.>15.)  )
### v6_4L_SFoffshell_MVAinputs					;(  (passEventCleaning && passTrigger && isTrigMatched) && (@lepton_pt.size()==4) && (total_charge==0) && ((lepton_ID[0]!=-lepton_ID[1] || Mll01>12e3) && (lepton_ID[0]!=-lepton_ID[2] || Mll02>12e3) && (lepton_ID[0]!=-lepton_ID[3] || Mll03>12e3) && (lepton_ID[1]!=-lepton_ID[2] || Mll12>12e3) && (lepton_ID[1]!=-lepton_ID[3] || Mll13>12e3) && (lepton_ID[2]!=-lepton_ID[3] || Mll23>12e3)) && (lepton_pt[3]/1000.>10.) && ((lepton_ID[0]==-lepton_ID[1] && abs(Mll01-91.2e3)<10e3 && (lepton_ID[2]==-lepton_ID[3])) || (lepton_ID[0]==-lepton_ID[2] && abs(Mll02-91.2e3)<10e3 && (lepton_ID[1]==-lepton_ID[3])) || (lepton_ID[0]==-lepton_ID[3] && abs(Mll03-91.2e3)<10e3 && (lepton_ID[1]==-lepton_ID[2])) || (lepton_ID[1]==-lepton_ID[2] && abs(Mll12-91.2e3)<10e3 && (lepton_ID[0]==-lepton_ID[3])) || (lepton_ID[1]==-lepton_ID[3] && abs(Mll13-91.2e3)<10e3 && (lepton_ID[0]==-lepton_ID[2])) || (lepton_ID[2]==-lepton_ID[3] && abs(Mll23-91.2e3)<10e3 && (lepton_ID[0]==-lepton_ID[1]))) && (nJets_mv2c10_70==0) && (lepton_isTightLH[2] && lepton_ambiguityType[2]==0 && lepton_isolationFixedCutLoose[2] && ((lepton_PromptLeptonVeto[2]<-0.7 && abs(lepton_ID[2])==11) || (lepton_PromptLeptonVeto[2]<-0.5 && abs(lepton_ID[2])==13))) && (lepton_isTightLH[3] && lepton_ambiguityType[3]==0 && lepton_isolationFixedCutLoose[3] && ((lepton_PromptLeptonVeto[3]<-0.7 && abs(lepton_ID[3])==11) || (lepton_PromptLeptonVeto[3]<-0.5 && abs(lepton_ID[3])==13))) && (abs(best_Z_other_Mll-91.2e3)>=10e3) && (lepton_pt[3]/1000.>15.)  )
### v6_4L_SFonshell_MVAinputs					;(  (passEventCleaning && passTrigger && isTrigMatched) && (@lepton_pt.size()==4) && (total_charge==0) && ((lepton_ID[0]!=-lepton_ID[1] || Mll01>12e3) && (lepton_ID[0]!=-lepton_ID[2] || Mll02>12e3) && (lepton_ID[0]!=-lepton_ID[3] || Mll03>12e3) && (lepton_ID[1]!=-lepton_ID[2] || Mll12>12e3) && (lepton_ID[1]!=-lepton_ID[3] || Mll13>12e3) && (lepton_ID[2]!=-lepton_ID[3] || Mll23>12e3)) && (lepton_pt[3]/1000.>10.) && ((lepton_ID[0]==-lepton_ID[1] && abs(Mll01-91.2e3)<10e3 && (lepton_ID[2]==-lepton_ID[3])) || (lepton_ID[0]==-lepton_ID[2] && abs(Mll02-91.2e3)<10e3 && (lepton_ID[1]==-lepton_ID[3])) || (lepton_ID[0]==-lepton_ID[3] && abs(Mll03-91.2e3)<10e3 && (lepton_ID[1]==-lepton_ID[2])) || (lepton_ID[1]==-lepton_ID[2] && abs(Mll12-91.2e3)<10e3 && (lepton_ID[0]==-lepton_ID[3])) || (lepton_ID[1]==-lepton_ID[3] && abs(Mll13-91.2e3)<10e3 && (lepton_ID[0]==-lepton_ID[2])) || (lepton_ID[2]==-lepton_ID[3] && abs(Mll23-91.2e3)<10e3 && (lepton_ID[0]==-lepton_ID[1]))) && (nJets_mv2c10_70==0) && (lepton_isTightLH[2] && lepton_ambiguityType[2]==0 && lepton_isolationFixedCutLoose[2] && ((lepton_PromptLeptonVeto[2]<-0.7 && abs(lepton_ID[2])==11) || (lepton_PromptLeptonVeto[2]<-0.5 && abs(lepton_ID[2])==13))) && (lepton_isTightLH[3] && lepton_ambiguityType[3]==0 && lepton_isolationFixedCutLoose[3] && ((lepton_PromptLeptonVeto[3]<-0.7 && abs(lepton_ID[3])==11) || (lepton_PromptLeptonVeto[3]<-0.5 && abs(lepton_ID[3])==13))) && (abs(best_Z_other_Mll-91.2e3)<10e3) && (lepton_pt[3]/1000.>15.)  )
##---- ttZ->3l CR ----#
### DATAMC_ttZ3L_CR                                             	;(  (passEventCleaning && passTrigger && isTrigMatched) && (@lepton_pt.size()==3) && (abs(total_charge)==1) && ((lepton_ID[0]!=-lepton_ID[1] || Mll01>12e3) && (lepton_ID[0]!=-lepton_ID[2] || Mll02>12e3) && (lepton_ID[1]!=-lepton_ID[2] || Mll12>12e3)) && ((lepton_ID[0]==-lepton_ID[1] && abs(Mll01-91.2e3)<10e3) || (lepton_ID[0]==-lepton_ID[2] && abs(Mll02-91.2e3)<10e3) || (lepton_ID[1]==-lepton_ID[2] && abs(Mll12-91.2e3)<10e3)) && ( (Mll12==best_Z_Mll && lepton_isTightLH[0] && lepton_ambiguityType[0]==0 && lepton_isolationFixedCutLoose[0] && ((lepton_PromptLeptonVeto[0]<-0.7 && abs(lepton_ID[0])==11) || (lepton_PromptLeptonVeto[0]<-0.5 && abs(lepton_ID[0])==13))) || (Mll02==best_Z_Mll && lepton_isTightLH[1] && lepton_ambiguityType[1]==0 && lepton_isolationFixedCutLoose[1] && ((lepton_PromptLeptonVeto[1]<-0.7 && abs(lepton_ID[1])==11) || (lepton_PromptLeptonVeto[1]<-0.5 && abs(lepton_ID[1])==13))) || (Mll01==best_Z_Mll && lepton_isTightLH[2] && lepton_ambiguityType[2]==0 && lepton_isolationFixedCutLoose[2] && ((lepton_PromptLeptonVeto[2]<-0.7 && abs(lepton_ID[2])==11) || (lepton_PromptLeptonVeto[2]<-0.5 && abs(lepton_ID[2])==13))) ) && (nJets_mv2c10_70>=2) && (@jet_pt.size()>=4) && (lepton_pt[2]/1000.>15.)  )
### threeL_lowPU_preMVA						;(  (passEventCleaning && passTrigger && isTrigMatched) && (@lepton_pt.size()==3) && (abs(total_charge)==1) && ((lepton_ID[0]!=-lepton_ID[1] || Mll01>12e3) && (lepton_ID[0]!=-lepton_ID[2] || Mll02>12e3) && (lepton_ID[1]!=-lepton_ID[2] || Mll12>12e3)) && ((lepton_ID[0]==-lepton_ID[1] && abs(Mll01-91.2e3)<10e3) || (lepton_ID[0]==-lepton_ID[2] && abs(Mll02-91.2e3)<10e3) || (lepton_ID[1]==-lepton_ID[2] && abs(Mll12-91.2e3)<10e3)) && ( (Mll12==best_Z_Mll && lepton_isTightLH[0] && lepton_ambiguityType[0]==0 && lepton_isolationFixedCutLoose[0] && ((lepton_PromptLeptonVeto[0]<-0.7 && abs(lepton_ID[0])==11) || (lepton_PromptLeptonVeto[0]<-0.5 && abs(lepton_ID[0])==13))) || (Mll02==best_Z_Mll && lepton_isTightLH[1] && lepton_ambiguityType[1]==0 && lepton_isolationFixedCutLoose[1] && ((lepton_PromptLeptonVeto[1]<-0.7 && abs(lepton_ID[1])==11) || (lepton_PromptLeptonVeto[1]<-0.5 && abs(lepton_ID[1])==13))) || (Mll01==best_Z_Mll && lepton_isTightLH[2] && lepton_ambiguityType[2]==0 && lepton_isolationFixedCutLoose[2] && ((lepton_PromptLeptonVeto[2]<-0.7 && abs(lepton_ID[2])==11) || (lepton_PromptLeptonVeto[2]<-0.5 && abs(lepton_ID[2])==13))) ) && (@jet_pt.size()!=0) && (nJets_mv2c10_70==0) && (lepton_pt[2]/1000.>15.) && ((HT_lep+HT_had)/1000.)>200. && (average_mu<28)  )
### threeL_medPU_preMVA						;(  (passEventCleaning && passTrigger && isTrigMatched) && (@lepton_pt.size()==3) && (abs(total_charge)==1) && ((lepton_ID[0]!=-lepton_ID[1] || Mll01>12e3) && (lepton_ID[0]!=-lepton_ID[2] || Mll02>12e3) && (lepton_ID[1]!=-lepton_ID[2] || Mll12>12e3)) && ((lepton_ID[0]==-lepton_ID[1] && abs(Mll01-91.2e3)<10e3) || (lepton_ID[0]==-lepton_ID[2] && abs(Mll02-91.2e3)<10e3) || (lepton_ID[1]==-lepton_ID[2] && abs(Mll12-91.2e3)<10e3)) && ( (Mll12==best_Z_Mll && lepton_isTightLH[0] && lepton_ambiguityType[0]==0 && lepton_isolationFixedCutLoose[0] && ((lepton_PromptLeptonVeto[0]<-0.7 && abs(lepton_ID[0])==11) || (lepton_PromptLeptonVeto[0]<-0.5 && abs(lepton_ID[0])==13))) || (Mll02==best_Z_Mll && lepton_isTightLH[1] && lepton_ambiguityType[1]==0 && lepton_isolationFixedCutLoose[1] && ((lepton_PromptLeptonVeto[1]<-0.7 && abs(lepton_ID[1])==11) || (lepton_PromptLeptonVeto[1]<-0.5 && abs(lepton_ID[1])==13))) || (Mll01==best_Z_Mll && lepton_isTightLH[2] && lepton_ambiguityType[2]==0 && lepton_isolationFixedCutLoose[2] && ((lepton_PromptLeptonVeto[2]<-0.7 && abs(lepton_ID[2])==11) || (lepton_PromptLeptonVeto[2]<-0.5 && abs(lepton_ID[2])==13))) ) && (@jet_pt.size()!=0) && (nJets_mv2c10_70==0) && (lepton_pt[2]/1000.>15.) && ((HT_lep+HT_had)/1000.)>200. && (average_mu>=28 && average_mu<36)  )
### threeL_highPU_preMVA						;(  (passEventCleaning && passTrigger && isTrigMatched) && (@lepton_pt.size()==3) && (abs(total_charge)==1) && ((lepton_ID[0]!=-lepton_ID[1] || Mll01>12e3) && (lepton_ID[0]!=-lepton_ID[2] || Mll02>12e3) && (lepton_ID[1]!=-lepton_ID[2] || Mll12>12e3)) && ((lepton_ID[0]==-lepton_ID[1] && abs(Mll01-91.2e3)<10e3) || (lepton_ID[0]==-lepton_ID[2] && abs(Mll02-91.2e3)<10e3) || (lepton_ID[1]==-lepton_ID[2] && abs(Mll12-91.2e3)<10e3)) && ( (Mll12==best_Z_Mll && lepton_isTightLH[0] && lepton_ambiguityType[0]==0 && lepton_isolationFixedCutLoose[0] && ((lepton_PromptLeptonVeto[0]<-0.7 && abs(lepton_ID[0])==11) || (lepton_PromptLeptonVeto[0]<-0.5 && abs(lepton_ID[0])==13))) || (Mll02==best_Z_Mll && lepton_isTightLH[1] && lepton_ambiguityType[1]==0 && lepton_isolationFixedCutLoose[1] && ((lepton_PromptLeptonVeto[1]<-0.7 && abs(lepton_ID[1])==11) || (lepton_PromptLeptonVeto[1]<-0.5 && abs(lepton_ID[1])==13))) || (Mll01==best_Z_Mll && lepton_isTightLH[2] && lepton_ambiguityType[2]==0 && lepton_isolationFixedCutLoose[2] && ((lepton_PromptLeptonVeto[2]<-0.7 && abs(lepton_ID[2])==11) || (lepton_PromptLeptonVeto[2]<-0.5 && abs(lepton_ID[2])==13))) ) && (@jet_pt.size()!=0) && (nJets_mv2c10_70==0) && (lepton_pt[2]/1000.>15.) && ((HT_lep+HT_had)/1000.)>200. && (average_mu>=36)  )
