#--- *region name*	*selection string* ---#
###AntiCut_region		;quadlep_type && (lep_isTrigMatch_0 || lep_isTrigMatch_1 || lep_isTrigMatch_2 || lep_isTrigMatch_3 || lep_isTrigMatchDLT_0 || lep_isTrigMatchDLT_1 || lep_isTrigMatchDLT_2 || lep_isTrigMatchDLT_3) && !total_charge && (lep_ID_0!=-lep_ID_1 || Mll01>12e3 && abs(Mll01-91.2e3)>10e3) && (lep_ID_0!=-lep_ID_2 || Mll02>12e3 && abs(Mll02-91.2e3)>10e3) && (lep_ID_0!=-lep_ID_3 || Mll03>12e3 && abs(Mll03-91.2e3)>10e3) && (lep_ID_1!=-lep_ID_2 || Mll12>12e3 && abs(Mll12-91.2e3)>10e3) && (lep_ID_1!=-lep_ID_3 || Mll13>12e3 && abs(Mll13-91.2e3)>10e3) && (lep_ID_2!=-lep_ID_3 || Mll23>12e3 && abs(Mll23-91.2e3)>10e3) && nJets_OR>1 && nJets_OR_MV2c10_70 && abs(Mllll0123-125e3)>5e3 && (!(lep_ID_0+lep_ID_1) || !(lep_ID_0+lep_ID_2) || !(lep_ID_0+lep_ID_3) || !(lep_ID_1+lep_ID_2) || !(lep_ID_1+lep_ID_3) || !(lep_ID_2+lep_ID_3)) && (lep_promptLeptonIso_TagWeight_2<-0.5 && (abs(lep_ID_2)==13 || (abs(lep_ID_2)==11 && lep_isTightLH_2)) && lep_promptLeptonIso_TagWeight_3<-0.5 && (abs(lep_ID_3)==13 || (abs(lep_ID_3)==11 && lep_isTightLH_3))) && (MVA4lBonn_weight_ttZ<=-0.1434)
###PreMVA_region		;quadlep_type && (lep_isTrigMatch_0 || lep_isTrigMatch_1 || lep_isTrigMatch_2 || lep_isTrigMatch_3 || lep_isTrigMatchDLT_0 || lep_isTrigMatchDLT_1 || lep_isTrigMatchDLT_2 || lep_isTrigMatchDLT_3) && !total_charge && (lep_ID_0!=-lep_ID_1 || Mll01>12e3 && abs(Mll01-91.2e3)>10e3) && (lep_ID_0!=-lep_ID_2 || Mll02>12e3 && abs(Mll02-91.2e3)>10e3) && (lep_ID_0!=-lep_ID_3 || Mll03>12e3 && abs(Mll03-91.2e3)>10e3) && (lep_ID_1!=-lep_ID_2 || Mll12>12e3 && abs(Mll12-91.2e3)>10e3) && (lep_ID_1!=-lep_ID_3 || Mll13>12e3 && abs(Mll13-91.2e3)>10e3) && (lep_ID_2!=-lep_ID_3 || Mll23>12e3 && abs(Mll23-91.2e3)>10e3) && nJets_OR>1 && nJets_OR_MV2c10_70 && abs(Mllll0123-125e3)>5e3 && (!(lep_ID_0+lep_ID_1) || !(lep_ID_0+lep_ID_2) || !(lep_ID_0+lep_ID_3) || !(lep_ID_1+lep_ID_2) || !(lep_ID_1+lep_ID_3) || !(lep_ID_2+lep_ID_3)) && (lep_promptLeptonIso_TagWeight_2<-0.5 && (abs(lep_ID_2)==13 || (abs(lep_ID_2)==11 && lep_isTightLH_2)) && lep_promptLeptonIso_TagWeight_3<-0.5 && (abs(lep_ID_3)==13 || (abs(lep_ID_3)==11 && lep_isTightLH_3)))
###BDTcut_region		;quadlep_type && (lep_isTrigMatch_0 || lep_isTrigMatch_1 || lep_isTrigMatch_2 || lep_isTrigMatch_3 || lep_isTrigMatchDLT_0 || lep_isTrigMatchDLT_1 || lep_isTrigMatchDLT_2 || lep_isTrigMatchDLT_3) && !total_charge && (lep_ID_0!=-lep_ID_1 || Mll01>12e3 && abs(Mll01-91.2e3)>10e3) && (lep_ID_0!=-lep_ID_2 || Mll02>12e3 && abs(Mll02-91.2e3)>10e3) && (lep_ID_0!=-lep_ID_3 || Mll03>12e3 && abs(Mll03-91.2e3)>10e3) && (lep_ID_1!=-lep_ID_2 || Mll12>12e3 && abs(Mll12-91.2e3)>10e3) && (lep_ID_1!=-lep_ID_3 || Mll13>12e3 && abs(Mll13-91.2e3)>10e3) && (lep_ID_2!=-lep_ID_3 || Mll23>12e3 && abs(Mll23-91.2e3)>10e3) && nJets_OR>1 && nJets_OR_MV2c10_70 && abs(Mllll0123-125e3)>5e3 && (!(lep_ID_0+lep_ID_1) || !(lep_ID_0+lep_ID_2) || !(lep_ID_0+lep_ID_3) || !(lep_ID_1+lep_ID_2) || !(lep_ID_1+lep_ID_3) || !(lep_ID_2+lep_ID_3)) && (lep_promptLeptonIso_TagWeight_2<-0.5 && (abs(lep_ID_2)==13 || (abs(lep_ID_2)==11 && lep_isTightLH_2)) && lep_promptLeptonIso_TagWeight_3<-0.5 && (abs(lep_ID_3)==13 || (abs(lep_ID_3)==11 && lep_isTightLH_3))) && (MVA4lBonn_weight_ttZ>-0.1434)
#----- ZZ CR -----#
thesis_ZZ_CR		;passEventCleaning && quadlep_type>0 && (lep_Pt_0>10e3 && lep_Pt_1>10e3 && lep_Pt_2>10e3 && lep_Pt_3>10e3) && (lep_isTrigMatch_0 || lep_isTrigMatch_1 || lep_isTrigMatch_2 || lep_isTrigMatch_3 || matchDLTll01 || matchDLTll02 || matchDLTll12 || matchDLTll03 || matchDLTll13 || matchDLTll23) && abs(total_charge)==0 && ((lep_ID_0==-lep_ID_1 && abs(Mll01-91.2e3)<10e3 && lep_ID_2==-lep_ID_3 && abs(Mll23-91.2e3)<10e3) || (lep_ID_0==-lep_ID_2 && abs(Mll02-91.2e3)<10e3 && lep_ID_1==-lep_ID_3 && abs(Mll13-91.2e3)<10e3) || (lep_ID_0==-lep_ID_3 && abs(Mll03-91.2e3)<10e3 && lep_ID_1==-lep_ID_2 && abs(Mll12-91.2e3)<10e3)) && ((lep_ID_0!=-lep_ID_1 || Mll01>12e3) && (lep_ID_0!=-lep_ID_2 || Mll02>12e3) && (lep_ID_0!=-lep_ID_3 || Mll03>12e3) && (lep_ID_1!=-lep_ID_2 || Mll12>12e3) && (lep_ID_1!=-lep_ID_3 || Mll13>12e3) && (lep_ID_2!=-lep_ID_3 || Mll23>12e3)) && lep_promptLeptonIso_TagWeight_2< -0.5 && lep_promptLeptonIso_TagWeight_3<-0.5
#----- ttZ CR -----#
###ttZ_CR			;(passEventCleaning && quadlep_type>0 && (lep_Pt_0>25e3 && lep_Pt_1>15e3 && lep_Pt_2>10e3 && lep_Pt_3>10e3) && (lep_isTrigMatch_0 || lep_isTrigMatch_1 || lep_isTrigMatch_2 || lep_isTrigMatch_3 || matchDLTll01 || matchDLTll02 || matchDLTll12 || matchDLTll03 || matchDLTll13 || matchDLTll23) && abs(total_charge)==0 && (!((lep_ID_0==-lep_ID_1 && abs(Mll01-91.2e3)<10e3 && lep_ID_2==-lep_ID_3 && abs(Mll23-91.2e3)<10e3) || (lep_ID_0==-lep_ID_2 && abs(Mll02-91.2e3)<10e3 && lep_ID_1==-lep_ID_3 && abs(Mll13-91.2e3)<10e3) || (lep_ID_0==-lep_ID_3 && abs(Mll03-91.2e3)<10e3 && lep_ID_1==-lep_ID_2 && abs(Mll12-91.2e3)<10e3)) && abs(best_Z_Mll-91.2e3)<10e3 && ((lep_ID_0!=-lep_ID_1 || Mll01>12e3) && (lep_ID_0!=-lep_ID_2 || Mll02>12e3) && (lep_ID_0!=-lep_ID_3 || Mll03>12e3) && (lep_ID_1!=-lep_ID_2 || Mll12>12e3) && (lep_ID_1!=-lep_ID_3 || Mll13>12e3) && (lep_ID_2!=-lep_ID_3 || Mll23>12e3))) && lep_promptLeptonIso_TagWeight_2< -0.5 && lep_promptLeptonIso_TagWeight_3<-0.5 && nJets_OR_MV2c10_70)
#----- WWZ SR ----#
###WWZ_PreSelection			;passEventCleaning && quadlep_type && !total_charge && (lep_isTrigMatch_0 || lep_isTrigMatch_1 || lep_isTrigMatch_2 || lep_isTrigMatch_3 || matchDLTll01 || matchDLTll02 || matchDLTll12 || matchDLTll03 || matchDLTll13 || matchDLTll23) && (lep_promptLeptonIso_TagWeight_2<-0.5 && (abs(lep_ID_2)==13 || (abs(lep_ID_2)==11 && lep_isTightLH_2)) && lep_promptLeptonIso_TagWeight_3<-0.5 && (abs(lep_ID_3)==13 || (abs(lep_ID_3)==11 && lep_isTightLH_3))) && ((lep_ID_0!=-lep_ID_1 || Mll01>12e3) && (lep_ID_0!=-lep_ID_2 || Mll02>12e3) && (lep_ID_0!=-lep_ID_3 || Mll03>12e3) && (lep_ID_1!=-lep_ID_2 || Mll12>12e3) && (lep_ID_1!=-lep_ID_3 || Mll13>12e3) && (lep_ID_2!=-lep_ID_3 || Mll23>12e3))
###SF_WWZ_SR			;passEventCleaning && quadlep_type && !total_charge && (lep_isTrigMatch_0 || lep_isTrigMatch_1 || lep_isTrigMatch_2 || lep_isTrigMatch_3 || matchDLTll01 || matchDLTll02 || matchDLTll12 || matchDLTll03 || matchDLTll13 || matchDLTll23) && ((lep_ID_0!=-lep_ID_1 || Mll01>12e3) && (lep_ID_0!=-lep_ID_2 || Mll02>12e3) && (lep_ID_0!=-lep_ID_3 || Mll03>12e3) && (lep_ID_1!=-lep_ID_2 || Mll12>12e3) && (lep_ID_1!=-lep_ID_3 || Mll13>12e3) && (lep_ID_2!=-lep_ID_3 || Mll23>12e3)) && (lep_promptLeptonIso_TagWeight_2<-0.5 && (abs(lep_ID_2)==13 || (abs(lep_ID_2)==11 && lep_isTightLH_2)) && lep_promptLeptonIso_TagWeight_3<-0.5 && (abs(lep_ID_3)==13 || (abs(lep_ID_3)==11 && lep_isTightLH_3))) && ((lep_ID_0==-lep_ID_1 && abs(Mll01-91.2e3)<10e3 && (lep_ID_2==-lep_ID_3)) || (lep_ID_0==-lep_ID_2 && abs(Mll02-91.2e3)<10e3 && (lep_ID_1==-lep_ID_3)) || (lep_ID_0==-lep_ID_3 && abs(Mll03-91.2e3)<10e3 && (lep_ID_1==-lep_ID_2)) || (lep_ID_1==-lep_ID_2 && abs(Mll12-91.2e3)<10e3 && (lep_ID_0==-lep_ID_3)) || (lep_ID_1==-lep_ID_3 && abs(Mll13-91.2e3)<10e3 && (lep_ID_0==-lep_ID_2)) || (lep_ID_2==-lep_ID_3 && abs(Mll23-91.2e3)<10e3 && (lep_ID_0==-lep_ID_1))) && (nJets_OR_T_MV2c20_77==0)
###DF_WWZ_SR			;passEventCleaning && quadlep_type && !total_charge && (lep_isTrigMatch_0 || lep_isTrigMatch_1 || lep_isTrigMatch_2 || lep_isTrigMatch_3 || matchDLTll01 || matchDLTll02 || matchDLTll12 || matchDLTll03 || matchDLTll13 || matchDLTll23) && ((lep_ID_0!=-lep_ID_1 || Mll01>12e3) && (lep_ID_0!=-lep_ID_2 || Mll02>12e3) && (lep_ID_0!=-lep_ID_3 || Mll03>12e3) && (lep_ID_1!=-lep_ID_2 || Mll12>12e3) && (lep_ID_1!=-lep_ID_3 || Mll13>12e3) && (lep_ID_2!=-lep_ID_3 || Mll23>12e3)) && (lep_promptLeptonIso_TagWeight_2<-0.5 && (abs(lep_ID_2)==13 || (abs(lep_ID_2)==11 && lep_isTightLH_2)) && lep_promptLeptonIso_TagWeight_3<-0.5 && (abs(lep_ID_3)==13 || (abs(lep_ID_3)==11 && lep_isTightLH_3))) && ((lep_ID_0==-lep_ID_1 && abs(Mll01-91.2e3)<10e3 && !(lep_ID_2==-lep_ID_3)) || (lep_ID_0==-lep_ID_2 && abs(Mll02-91.2e3)<10e3 && !(lep_ID_1==-lep_ID_3)) || (lep_ID_0==-lep_ID_3 && abs(Mll03-91.2e3)<10e3 && !(lep_ID_1==-lep_ID_2)) || (lep_ID_1==-lep_ID_2 && abs(Mll12-91.2e3)<10e3 && !(lep_ID_0==-lep_ID_3)) || (lep_ID_1==-lep_ID_3 && abs(Mll13-91.2e3)<10e3 && !(lep_ID_0==-lep_ID_2)) || (lep_ID_2==-lep_ID_3 && abs(Mll23-91.2e3)<10e3 && !(lep_ID_0==-lep_ID_1))) && (nJets_OR_T_MV2c20_77==0)
###WWZ_SR				;passEventCleaning && quadlep_type && !total_charge && (lep_isTrigMatch_0 || lep_isTrigMatch_1 || lep_isTrigMatch_2 || lep_isTrigMatch_3 || matchDLTll01 || matchDLTll02 || matchDLTll12 || matchDLTll03 || matchDLTll13 || matchDLTll23) && ((lep_ID_0==-lep_ID_1 && abs(Mll01-91.2e3)<10e3 && !(lep_ID_2==-lep_ID_3)) || (lep_ID_0==-lep_ID_2 && abs(Mll02-91.2e3)<10e3 && !(lep_ID_1==-lep_ID_3)) || (lep_ID_0==-lep_ID_3 && abs(Mll03-91.2e3)<10e3 && !(lep_ID_1==-lep_ID_2)) || (lep_ID_1==-lep_ID_2 && abs(Mll12-91.2e3)<10e3 && !(lep_ID_0==-lep_ID_3)) || (lep_ID_1==-lep_ID_3 && abs(Mll13-91.2e3)<10e3 && !(lep_ID_0==-lep_ID_2)) || (lep_ID_2==-lep_ID_3 && abs(Mll23-91.2e3)<10e3 && !(lep_ID_0==-lep_ID_1))) && ((lep_ID_0!=-lep_ID_1 || Mll01>12e3) && (lep_ID_0!=-lep_ID_2 || Mll02>12e3) && (lep_ID_0!=-lep_ID_3 || Mll03>12e3) && (lep_ID_1!=-lep_ID_2 || Mll12>12e3) && (lep_ID_1!=-lep_ID_3 || Mll13>12e3) && (lep_ID_2!=-lep_ID_3 || Mll23>12e3)) && (lep_promptLeptonIso_TagWeight_2<-0.5 && (abs(lep_ID_2)==13 || (abs(lep_ID_2)==11 && lep_isTightLH_2)) && lep_promptLeptonIso_TagWeight_3<-0.5 && (abs(lep_ID_3)==13 || (abs(lep_ID_3)==11 && lep_isTightLH_3)))
###WWZ_SR_noBjets				;passEventCleaning && quadlep_type && !total_charge && (lep_isTrigMatch_0 || lep_isTrigMatch_1 || lep_isTrigMatch_2 || lep_isTrigMatch_3 || matchDLTll01 || matchDLTll02 || matchDLTll12 || matchDLTll03 || matchDLTll13 || matchDLTll23) && ((lep_ID_0==-lep_ID_1 && abs(Mll01-91.2e3)<10e3 && !(lep_ID_2==-lep_ID_3)) || (lep_ID_0==-lep_ID_2 && abs(Mll02-91.2e3)<10e3 && !(lep_ID_1==-lep_ID_3)) || (lep_ID_0==-lep_ID_3 && abs(Mll03-91.2e3)<10e3 && !(lep_ID_1==-lep_ID_2)) || (lep_ID_1==-lep_ID_2 && abs(Mll12-91.2e3)<10e3 && !(lep_ID_0==-lep_ID_3)) || (lep_ID_1==-lep_ID_3 && abs(Mll13-91.2e3)<10e3 && !(lep_ID_0==-lep_ID_2)) || (lep_ID_2==-lep_ID_3 && abs(Mll23-91.2e3)<10e3 && !(lep_ID_0==-lep_ID_1))) && ((lep_ID_0!=-lep_ID_1 || Mll01>12e3) && (lep_ID_0!=-lep_ID_2 || Mll02>12e3) && (lep_ID_0!=-lep_ID_3 || Mll03>12e3) && (lep_ID_1!=-lep_ID_2 || Mll12>12e3) && (lep_ID_1!=-lep_ID_3 || Mll13>12e3) && (lep_ID_2!=-lep_ID_3 || Mll23>12e3)) && (lep_promptLeptonIso_TagWeight_2<-0.5 && (abs(lep_ID_2)==13 || (abs(lep_ID_2)==11 && lep_isTightLH_2)) && lep_promptLeptonIso_TagWeight_3<-0.5 && (abs(lep_ID_3)==13 || (abs(lep_ID_3)==11 && lep_isTightLH_3))) && (nJets_OR_T_MV2c20_77==0)
###WWZ_SR_noBjets_mllCut				;passEventCleaning && quadlep_type && !total_charge && (lep_isTrigMatch_0 || lep_isTrigMatch_1 || lep_isTrigMatch_2 || lep_isTrigMatch_3 || matchDLTll01 || matchDLTll02 || matchDLTll12 || matchDLTll03 || matchDLTll13 || matchDLTll23) && ((lep_ID_0==-lep_ID_1 && abs(Mll01-91.2e3)<10e3 && !(lep_ID_2==-lep_ID_3)) || (lep_ID_0==-lep_ID_2 && abs(Mll02-91.2e3)<10e3 && !(lep_ID_1==-lep_ID_3)) || (lep_ID_0==-lep_ID_3 && abs(Mll03-91.2e3)<10e3 && !(lep_ID_1==-lep_ID_2)) || (lep_ID_1==-lep_ID_2 && abs(Mll12-91.2e3)<10e3 && !(lep_ID_0==-lep_ID_3)) || (lep_ID_1==-lep_ID_3 && abs(Mll13-91.2e3)<10e3 && !(lep_ID_0==-lep_ID_2)) || (lep_ID_2==-lep_ID_3 && abs(Mll23-91.2e3)<10e3 && !(lep_ID_0==-lep_ID_1))) && ((lep_ID_0!=-lep_ID_1 || Mll01>12e3) && (lep_ID_0!=-lep_ID_2 || Mll02>12e3) && (lep_ID_0!=-lep_ID_3 || Mll03>12e3) && (lep_ID_1!=-lep_ID_2 || Mll12>12e3) && (lep_ID_1!=-lep_ID_3 || Mll13>12e3) && (lep_ID_2!=-lep_ID_3 || Mll23>12e3)) && (lep_promptLeptonIso_TagWeight_2<-0.5 && (abs(lep_ID_2)==13 || (abs(lep_ID_2)==11 && lep_isTightLH_2)) && lep_promptLeptonIso_TagWeight_3<-0.5 && (abs(lep_ID_3)==13 || (abs(lep_ID_3)==11 && lep_isTightLH_3))) && (nJets_OR_T_MV2c20_77==0) && (best_Z_other_Mll/1000.>60.) 
###outZ_WWZ			;passEventCleaning && quadlep_type && !total_charge && (lep_isTrigMatch_0 || lep_isTrigMatch_1 || lep_isTrigMatch_2 || lep_isTrigMatch_3 || matchDLTll01 || matchDLTll02 || matchDLTll12 || matchDLTll03 || matchDLTll13 || matchDLTll23) && !((lep_ID_0==-lep_ID_1 && abs(Mll01-91.2e3)<10e3 && lep_ID_2==-lep_ID_3 && abs(Mll23-91.2e3)<10e3) || (lep_ID_0==-lep_ID_2 && abs(Mll02-91.2e3)<10e3 && lep_ID_1==-lep_ID_3 && abs(Mll13-91.2e3)<10e3) || (lep_ID_0==-lep_ID_3 && abs(Mll03-91.2e3)<10e3 && lep_ID_1==-lep_ID_2 && abs(Mll12-91.2e3)<10e3)) && abs(best_Z_Mll-91.2e3)<10e3 && ((lep_ID_0!=-lep_ID_1 || Mll01>12e3) && (lep_ID_0!=-lep_ID_2 || Mll02>12e3) && (lep_ID_0!=-lep_ID_3 || Mll03>12e3) && (lep_ID_1!=-lep_ID_2 || Mll12>12e3) && (lep_ID_1!=-lep_ID_3 || Mll13>12e3) && (lep_ID_2!=-lep_ID_3 || Mll23>12e3)) && (lep_promptLeptonIso_TagWeight_2<-0.5 && (abs(lep_ID_2)==13 || (abs(lep_ID_2)==11 && lep_isTightLH_2)) && lep_promptLeptonIso_TagWeight_3<-0.5 && (abs(lep_ID_3)==13 || (abs(lep_ID_3)==11 && lep_isTightLH_3)))
###mllCut_DF_WWZ_SR			;passEventCleaning && quadlep_type && !total_charge && (lep_isTrigMatch_0 || lep_isTrigMatch_1 || lep_isTrigMatch_2 || lep_isTrigMatch_3 || matchDLTll01 || matchDLTll02 || matchDLTll12 || matchDLTll03 || matchDLTll13 || matchDLTll23) && (lep_promptLeptonIso_TagWeight_2<-0.5 && (abs(lep_ID_2)==13 || (abs(lep_ID_2)==11 && lep_isTightLH_2)) && lep_promptLeptonIso_TagWeight_3<-0.5 && (abs(lep_ID_3)==13 || (abs(lep_ID_3)==11 && lep_isTightLH_3))) && ((lep_ID_0!=-lep_ID_1 || Mll01>12e3) && (lep_ID_0!=-lep_ID_2 || Mll02>12e3) && (lep_ID_0!=-lep_ID_3 || Mll03>12e3) && (lep_ID_1!=-lep_ID_2 || Mll12>12e3) && (lep_ID_1!=-lep_ID_3 || Mll13>12e3) && (lep_ID_2!=-lep_ID_3 || Mll23>12e3)) && (nJets_OR_T_MV2c20_77==0) && ((best_Z_other_Mll==Mll01 && lep_ID_0!=-lep_ID_1) || (best_Z_other_Mll==Mll02 && lep_ID_0!=-lep_ID_2) || (best_Z_other_Mll==Mll03 && lep_ID_0!=-lep_ID_3) || (best_Z_other_Mll==Mll12 && lep_ID_1!=-lep_ID_2) || (best_Z_other_Mll==Mll13 && lep_ID_1!=-lep_ID_3) || (best_Z_other_Mll==Mll23 && lep_ID_2!=-lep_ID_3)) && (best_Z_other_Mll/1000.>60.)
###ZZ_LF_CR			;passEventCleaning && quadlep_type && !total_charge && (lep_isTrigMatch_0 || lep_isTrigMatch_1 || lep_isTrigMatch_2 || lep_isTrigMatch_3 || matchDLTll01 || matchDLTll02 || matchDLTll12 || matchDLTll03 || matchDLTll13 || matchDLTll23) && ((lep_ID_0!=-lep_ID_1 || Mll01>12e3) && (lep_ID_0!=-lep_ID_2 || Mll02>12e3) && (lep_ID_0!=-lep_ID_3 || Mll03>12e3) && (lep_ID_1!=-lep_ID_2 || Mll12>12e3) && (lep_ID_1!=-lep_ID_3 || Mll13>12e3) && (lep_ID_2!=-lep_ID_3 || Mll23>12e3)) && (lep_promptLeptonIso_TagWeight_2<-0.5 && (abs(lep_ID_2)==13 || (abs(lep_ID_2)==11 && lep_isTightLH_2)) && lep_promptLeptonIso_TagWeight_3<-0.5 && (abs(lep_ID_3)==13 || (abs(lep_ID_3)==11 && lep_isTightLH_3))) && ((lep_ID_0==-lep_ID_1 && abs(Mll01-91.2e3)<10e3 && (lep_ID_2==-lep_ID_3)) || (lep_ID_0==-lep_ID_2 && abs(Mll02-91.2e3)<10e3 && (lep_ID_1==-lep_ID_3)) || (lep_ID_0==-lep_ID_3 && abs(Mll03-91.2e3)<10e3 && (lep_ID_1==-lep_ID_2)) || (lep_ID_1==-lep_ID_2 && abs(Mll12-91.2e3)<10e3 && (lep_ID_0==-lep_ID_3)) || (lep_ID_1==-lep_ID_3 && abs(Mll13-91.2e3)<10e3 && (lep_ID_0==-lep_ID_2)) || (lep_ID_2==-lep_ID_3 && abs(Mll23-91.2e3)<10e3 && (lep_ID_0==-lep_ID_1))) && (nJets_OR_T_MV2c20_77==0)
###WWZ_SF_PreMVA			;passEventCleaning && quadlep_type && !total_charge && (lep_isTrigMatch_0 || lep_isTrigMatch_1 || lep_isTrigMatch_2 || lep_isTrigMatch_3 || matchDLTll01 || matchDLTll02 || matchDLTll12 || matchDLTll03 || matchDLTll13 || matchDLTll23) && ((lep_ID_0!=-lep_ID_1 || Mll01>12e3) && (lep_ID_0!=-lep_ID_2 || Mll02>12e3) && (lep_ID_0!=-lep_ID_3 || Mll03>12e3) && (lep_ID_1!=-lep_ID_2 || Mll12>12e3) && (lep_ID_1!=-lep_ID_3 || Mll13>12e3) && (lep_ID_2!=-lep_ID_3 || Mll23>12e3)) && (lep_promptLeptonIso_TagWeight_2<-0.5 && (abs(lep_ID_2)==13 || (abs(lep_ID_2)==11 && lep_isTightLH_2)) && lep_promptLeptonIso_TagWeight_3<-0.5 && (abs(lep_ID_3)==13 || (abs(lep_ID_3)==11 && lep_isTightLH_3))) && ((lep_ID_0==-lep_ID_1 && abs(Mll01-91.2e3)<10e3 && (lep_ID_2==-lep_ID_3)) || (lep_ID_0==-lep_ID_2 && abs(Mll02-91.2e3)<10e3 && (lep_ID_1==-lep_ID_3)) || (lep_ID_0==-lep_ID_3 && abs(Mll03-91.2e3)<10e3 && (lep_ID_1==-lep_ID_2)) || (lep_ID_1==-lep_ID_2 && abs(Mll12-91.2e3)<10e3 && (lep_ID_0==-lep_ID_3)) || (lep_ID_1==-lep_ID_3 && abs(Mll13-91.2e3)<10e3 && (lep_ID_0==-lep_ID_2)) || (lep_ID_2==-lep_ID_3 && abs(Mll23-91.2e3)<10e3 && (lep_ID_0==-lep_ID_1))) && (nJets_OR_T_MV2c20_77==0) && (MET_RefFinal_et/1000.>30.)
###DF_WWZ_SR				;passEventCleaning && quadlep_type && !total_charge && (lep_isTrigMatch_0 || lep_isTrigMatch_1 || lep_isTrigMatch_2 || lep_isTrigMatch_3 || matchDLTll01 || matchDLTll02 || matchDLTll12 || matchDLTll03 || matchDLTll13 || matchDLTll23) && ((lep_ID_0!=-lep_ID_1 || Mll01>12e3) && (lep_ID_0!=-lep_ID_2 || Mll02>12e3) && (lep_ID_0!=-lep_ID_3 || Mll03>12e3) && (lep_ID_1!=-lep_ID_2 || Mll12>12e3) && (lep_ID_1!=-lep_ID_3 || Mll13>12e3) && (lep_ID_2!=-lep_ID_3 || Mll23>12e3)) && (lep_promptLeptonIso_TagWeight_2<-0.5 && (abs(lep_ID_2)==13 || (abs(lep_ID_2)==11 && lep_isTightLH_2)) && lep_promptLeptonIso_TagWeight_3<-0.5 && (abs(lep_ID_3)==13 || (abs(lep_ID_3)==11 && lep_isTightLH_3))) && ((lep_ID_0==-lep_ID_1 && abs(Mll01-91.2e3)<10e3 && !(lep_ID_2==-lep_ID_3)) || (lep_ID_0==-lep_ID_2 && abs(Mll02-91.2e3)<10e3 && !(lep_ID_1==-lep_ID_3)) || (lep_ID_0==-lep_ID_3 && abs(Mll03-91.2e3)<10e3 && !(lep_ID_1==-lep_ID_2)) || (lep_ID_1==-lep_ID_2 && abs(Mll12-91.2e3)<10e3 && !(lep_ID_0==-lep_ID_3)) || (lep_ID_1==-lep_ID_3 && abs(Mll13-91.2e3)<10e3 && !(lep_ID_0==-lep_ID_2)) || (lep_ID_2==-lep_ID_3 && abs(Mll23-91.2e3)<10e3 && !(lep_ID_0==-lep_ID_1))) && (nJets_OR_T_MV2c20_77==0)
###SF_ZZ_CR				;passEventCleaning && quadlep_type && !total_charge && (lep_isTrigMatch_0 || lep_isTrigMatch_1 || lep_isTrigMatch_2 || lep_isTrigMatch_3 || matchDLTll01 || matchDLTll02 || matchDLTll12 || matchDLTll03 || matchDLTll13 || matchDLTll23) && ((lep_ID_0!=-lep_ID_1 || Mll01>12e3) && (lep_ID_0!=-lep_ID_2 || Mll02>12e3) && (lep_ID_0!=-lep_ID_3 || Mll03>12e3) && (lep_ID_1!=-lep_ID_2 || Mll12>12e3) && (lep_ID_1!=-lep_ID_3 || Mll13>12e3) && (lep_ID_2!=-lep_ID_3 || Mll23>12e3)) && (lep_promptLeptonIso_TagWeight_2<-0.5 && (abs(lep_ID_2)==13 || (abs(lep_ID_2)==11 && lep_isTightLH_2)) && lep_promptLeptonIso_TagWeight_3<-0.5 && (abs(lep_ID_3)==13 || (abs(lep_ID_3)==11 && lep_isTightLH_3))) && ((lep_ID_0==-lep_ID_1 && abs(Mll01-91.2e3)<10e3 && (lep_ID_2==-lep_ID_3)) || (lep_ID_0==-lep_ID_2 && abs(Mll02-91.2e3)<10e3 && (lep_ID_1==-lep_ID_3)) || (lep_ID_0==-lep_ID_3 && abs(Mll03-91.2e3)<10e3 && (lep_ID_1==-lep_ID_2)) || (lep_ID_1==-lep_ID_2 && abs(Mll12-91.2e3)<10e3 && (lep_ID_0==-lep_ID_3)) || (lep_ID_1==-lep_ID_3 && abs(Mll13-91.2e3)<10e3 && (lep_ID_0==-lep_ID_2)) || (lep_ID_2==-lep_ID_3 && abs(Mll23-91.2e3)<10e3 && (lep_ID_0==-lep_ID_1))) && (nJets_OR_T_MV2c20_77==0)
#----- Check WWZ in 3L -----#
###3L_WWZ					;(   trilep_type>0 && (abs(total_charge)==1) && (lep_isTrigMatch_0 || lep_isTrigMatch_1 || lep_isTrigMatch_2 || matchDLTll01 || matchDLTll02 || matchDLTll12) && (nJets_OR_T_MV2c10_70==0) && (lep_ID_0!=-lep_ID_1 || (Mll01>12e3)) && (lep_ID_0!=-lep_ID_2 || (Mll02>12e3)) && (lep_promptLeptonIso_TagWeight_1 < -0.5 && ((abs(lep_ID_1)==13 && lep_isolationLoose_1 ) || (abs(lep_ID_1)==11 && lep_isolationLoose_1 && lep_isTightLH_1))) && (lep_promptLeptonIso_TagWeight_2 < -0.5 && ((abs(lep_ID_2)==13 && lep_isolationLoose_2 ) || (abs(lep_ID_2)==11 && lep_isolationLoose_2 && lep_isTightLH_2))) && ( (lep_ID_0==-lep_ID_1 && (abs(Mll01-91.2e3)<10e3)) || (lep_ID_0==-lep_ID_2 && (abs(Mll02-91.2e3)<10e3)) ) && MET_RefFinal_et/1000.>100. && HT/1000.>300. && nJets_OR_T<4    )
###3L_WWZ_PreSel					;(   trilep_type>0 && (abs(total_charge)==1) && (lep_isTrigMatch_0 || lep_isTrigMatch_1 || lep_isTrigMatch_2 || matchDLTll01 || matchDLTll02 || matchDLTll12) && (nJets_OR_T_MV2c10_70==0) && (lep_ID_0!=-lep_ID_1 || (Mll01>12e3)) && (lep_ID_0!=-lep_ID_2 || (Mll02>12e3)) && (lep_promptLeptonIso_TagWeight_1 < -0.5 && ((abs(lep_ID_1)==13 && lep_isolationLoose_1 ) || (abs(lep_ID_1)==11 && lep_isolationLoose_1 && lep_isTightLH_1))) && (lep_promptLeptonIso_TagWeight_2 < -0.5 && ((abs(lep_ID_2)==13 && lep_isolationLoose_2 ) || (abs(lep_ID_2)==11 && lep_isolationLoose_2 && lep_isTightLH_2))) && ( (lep_ID_0==-lep_ID_1 && (abs(Mll01-91.2e3)<10e3)) || (lep_ID_0==-lep_ID_2 && (abs(Mll02-91.2e3)<10e3)) )    )
###3L_WWZ_selA					;(   trilep_type>0 && (abs(total_charge)==1) && (lep_isTrigMatch_0 || lep_isTrigMatch_1 || lep_isTrigMatch_2 || matchDLTll01 || matchDLTll02 || matchDLTll12) && (lep_ID_0!=-lep_ID_1 || (Mll01>12e3)) && (lep_ID_0!=-lep_ID_2 || (Mll02>12e3)) && (lep_promptLeptonIso_TagWeight_1 < -0.5 && ((abs(lep_ID_1)==13 && lep_isolationLoose_1 ) || (abs(lep_ID_1)==11 && lep_isolationLoose_1 && lep_isTightLH_1))) && (lep_promptLeptonIso_TagWeight_2 < -0.5 && ((abs(lep_ID_2)==13 && lep_isolationLoose_2 ) || (abs(lep_ID_2)==11 && lep_isolationLoose_2 && lep_isTightLH_2))) && ( (lep_ID_0==-lep_ID_1 && (abs(Mll01-91.2e3)<10e3)) || (lep_ID_0==-lep_ID_2 && (abs(Mll02-91.2e3)<10e3)) )   )
###3L_WWZ_selB					;(   trilep_type>0 && (abs(total_charge)==1) && (lep_isTrigMatch_0 || lep_isTrigMatch_1 || lep_isTrigMatch_2 || matchDLTll01 || matchDLTll02 || matchDLTll12) && (lep_ID_0!=-lep_ID_1 || (Mll01>12e3)) && (lep_ID_0!=-lep_ID_2 || (Mll02>12e3)) && (lep_promptLeptonIso_TagWeight_1 < -0.5 && ((abs(lep_ID_1)==13 && lep_isolationLoose_1 ) || (abs(lep_ID_1)==11 && lep_isolationLoose_1 && lep_isTightLH_1))) && (lep_promptLeptonIso_TagWeight_2 < -0.5 && ((abs(lep_ID_2)==13 && lep_isolationLoose_2 ) || (abs(lep_ID_2)==11 && lep_isolationLoose_2 && lep_isTightLH_2))) && ( (lep_ID_0==-lep_ID_1 && (abs(Mll01-91.2e3)<10e3)) || (lep_ID_0==-lep_ID_2 && (abs(Mll02-91.2e3)<10e3)) ) && (nJets_OR_T_MV2c10_70==0)   )
###3L_WWZ_selC					;(   trilep_type>0 && (abs(total_charge)==1) && (lep_isTrigMatch_0 || lep_isTrigMatch_1 || lep_isTrigMatch_2 || matchDLTll01 || matchDLTll02 || matchDLTll12) && (lep_ID_0!=-lep_ID_1 || (Mll01>12e3)) && (lep_ID_0!=-lep_ID_2 || (Mll02>12e3)) && (lep_promptLeptonIso_TagWeight_1 < -0.5 && ((abs(lep_ID_1)==13 && lep_isolationLoose_1 ) || (abs(lep_ID_1)==11 && lep_isolationLoose_1 && lep_isTightLH_1))) && (lep_promptLeptonIso_TagWeight_2 < -0.5 && ((abs(lep_ID_2)==13 && lep_isolationLoose_2 ) || (abs(lep_ID_2)==11 && lep_isolationLoose_2 && lep_isTightLH_2))) && ( (lep_ID_0==-lep_ID_1 && (abs(Mll01-91.2e3)<10e3)) || (lep_ID_0==-lep_ID_2 && (abs(Mll02-91.2e3)<10e3)) ) && (nJets_OR_T_MV2c10_70==0) && (HT/1000. > 300.)   )
###3L_WWZ_0jets					;(   trilep_type>0 && (abs(total_charge)==1) && (lep_isTrigMatch_0 || lep_isTrigMatch_1 || lep_isTrigMatch_2 || matchDLTll01 || matchDLTll02 || matchDLTll12) && (lep_ID_0!=-lep_ID_1 || (Mll01>12e3)) && (lep_ID_0!=-lep_ID_2 || (Mll02>12e3)) && (lep_promptLeptonIso_TagWeight_1 < -0.5 && ((abs(lep_ID_1)==13 && lep_isolationLoose_1 ) || (abs(lep_ID_1)==11 && lep_isolationLoose_1 && lep_isTightLH_1))) && (lep_promptLeptonIso_TagWeight_2 < -0.5 && ((abs(lep_ID_2)==13 && lep_isolationLoose_2 ) || (abs(lep_ID_2)==11 && lep_isolationLoose_2 && lep_isTightLH_2))) && ( (lep_ID_0==-lep_ID_1 && (abs(Mll01-91.2e3)<10e3)) || (lep_ID_0==-lep_ID_2 && (abs(Mll02-91.2e3)<10e3)) ) && (nJets_OR_T_MV2c10_70==0) && (nJets_OR_T==0)  )
###3L_WWZ_1jet					;(   trilep_type>0 && (abs(total_charge)==1) && (lep_isTrigMatch_0 || lep_isTrigMatch_1 || lep_isTrigMatch_2 || matchDLTll01 || matchDLTll02 || matchDLTll12) && (lep_ID_0!=-lep_ID_1 || (Mll01>12e3)) && (lep_ID_0!=-lep_ID_2 || (Mll02>12e3)) && (lep_promptLeptonIso_TagWeight_1 < -0.5 && ((abs(lep_ID_1)==13 && lep_isolationLoose_1 ) || (abs(lep_ID_1)==11 && lep_isolationLoose_1 && lep_isTightLH_1))) && (lep_promptLeptonIso_TagWeight_2 < -0.5 && ((abs(lep_ID_2)==13 && lep_isolationLoose_2 ) || (abs(lep_ID_2)==11 && lep_isolationLoose_2 && lep_isTightLH_2))) && ( (lep_ID_0==-lep_ID_1 && (abs(Mll01-91.2e3)<10e3)) || (lep_ID_0==-lep_ID_2 && (abs(Mll02-91.2e3)<10e3)) ) && (nJets_OR_T_MV2c10_70==0) && (nJets_OR_T>0)  )
###ttH_WZ_CR					;(   trilep_type>0 && (abs(total_charge)==1) && (lep_isTrigMatch_0 || lep_isTrigMatch_1 || lep_isTrigMatch_2 || matchDLTll01 || matchDLTll02 || matchDLTll12) && (lep_ID_0!=-lep_ID_1 || (Mll01>12e3)) && (lep_ID_0!=-lep_ID_2 || (Mll02>12e3)) && (lep_promptLeptonIso_TagWeight_1 < -0.5) && (lep_promptLeptonIso_TagWeight_2 < -0.5) && ( (lep_ID_0==-lep_ID_1 && (abs(Mll01-91.2e3)<10e3)) || (lep_ID_0==-lep_ID_2 && (abs(Mll02-91.2e3)<10e3)) ) && (nJets_OR_MV2c10_77==0)  )
