#####--- SF+DF SRs ---#####
( passEventCleaning && quadlep_type && !total_charge && (lep_isTrigMatch_0 || lep_isTrigMatch_1 || lep_isTrigMatch_2 || lep_isTrigMatch_3 || matchDLTll01 || matchDLTll02 || matchDLTll12 || matchDLTll03 || matchDLTll13 || matchDLTll23) && ((lep_ID_0==-lep_ID_1 && abs(Mll01-91.2e3)<10e3 && !(lep_ID_2==-lep_ID_3)) || (lep_ID_0==-lep_ID_2 && abs(Mll02-91.2e3)<10e3 && !(lep_ID_1==-lep_ID_3)) || (lep_ID_0==-lep_ID_3 && abs(Mll03-91.2e3)<10e3 && !(lep_ID_1==-lep_ID_2)) || (lep_ID_1==-lep_ID_2 && abs(Mll12-91.2e3)<10e3 && !(lep_ID_0==-lep_ID_3)) || (lep_ID_1==-lep_ID_3 && abs(Mll13-91.2e3)<10e3 && !(lep_ID_0==-lep_ID_2)) || (lep_ID_2==-lep_ID_3 && abs(Mll23-91.2e3)<10e3 && !(lep_ID_0==-lep_ID_1))) && ((lep_ID_0!=-lep_ID_1 || Mll01>12e3) && (lep_ID_0!=-lep_ID_2 || Mll02>12e3) && (lep_ID_0!=-lep_ID_3 || Mll03>12e3) && (lep_ID_1!=-lep_ID_2 || Mll12>12e3) && (lep_ID_1!=-lep_ID_3 || Mll13>12e3) && (lep_ID_2!=-lep_ID_3 || Mll23>12e3)) && (lep_promptLeptonIso_TagWeight_2<-0.5 && (abs(lep_ID_2)==13 || (abs(lep_ID_2)==11 && lep_isTightLH_2)) && lep_promptLeptonIso_TagWeight_3<-0.5 && (abs(lep_ID_3)==13 || (abs(lep_ID_3)==11 && lep_isTightLH_3))) && (nJets_OR_T_MV2c20_77==0) ) || ( passEventCleaning && quadlep_type && !total_charge && (lep_isTrigMatch_0 || lep_isTrigMatch_1 || lep_isTrigMatch_2 || lep_isTrigMatch_3 || matchDLTll01 || matchDLTll02 || matchDLTll12 || matchDLTll03 || matchDLTll13 || matchDLTll23) && ((lep_ID_0!=-lep_ID_1 || Mll01>12e3) && (lep_ID_0!=-lep_ID_2 || Mll02>12e3) && (lep_ID_0!=-lep_ID_3 || Mll03>12e3) && (lep_ID_1!=-lep_ID_2 || Mll12>12e3) && (lep_ID_1!=-lep_ID_3 || Mll13>12e3) && (lep_ID_2!=-lep_ID_3 || Mll23>12e3)) && (lep_promptLeptonIso_TagWeight_2<-0.5 && (abs(lep_ID_2)==13 || (abs(lep_ID_2)==11 && lep_isTightLH_2)) && lep_promptLeptonIso_TagWeight_3<-0.5 && (abs(lep_ID_3)==13 || (abs(lep_ID_3)==11 && lep_isTightLH_3))) && ((lep_ID_0==-lep_ID_1 && abs(Mll01-91.2e3)<10e3 && (lep_ID_2==-lep_ID_3)) || (lep_ID_0==-lep_ID_2 && abs(Mll02-91.2e3)<10e3 && (lep_ID_1==-lep_ID_3)) || (lep_ID_0==-lep_ID_3 && abs(Mll03-91.2e3)<10e3 && (lep_ID_1==-lep_ID_2)) || (lep_ID_1==-lep_ID_2 && abs(Mll12-91.2e3)<10e3 && (lep_ID_0==-lep_ID_3)) || (lep_ID_1==-lep_ID_3 && abs(Mll13-91.2e3)<10e3 && (lep_ID_0==-lep_ID_2)) || (lep_ID_2==-lep_ID_3 && abs(Mll23-91.2e3)<10e3 && (lep_ID_0==-lep_ID_1))) && (nJets_OR_T_MV2c20_77==0) )
#####--- WWZ DF SR ---#####
###( passEventCleaning && quadlep_type && !total_charge && (lep_isTrigMatch_0 || lep_isTrigMatch_1 || lep_isTrigMatch_2 || lep_isTrigMatch_3 || matchDLTll01 || matchDLTll02 || matchDLTll12 || matchDLTll03 || matchDLTll13 || matchDLTll23) && ((lep_ID_0==-lep_ID_1 && abs(Mll01-91.2e3)<10e3 && !(lep_ID_2==-lep_ID_3)) || (lep_ID_0==-lep_ID_2 && abs(Mll02-91.2e3)<10e3 && !(lep_ID_1==-lep_ID_3)) || (lep_ID_0==-lep_ID_3 && abs(Mll03-91.2e3)<10e3 && !(lep_ID_1==-lep_ID_2)) || (lep_ID_1==-lep_ID_2 && abs(Mll12-91.2e3)<10e3 && !(lep_ID_0==-lep_ID_3)) || (lep_ID_1==-lep_ID_3 && abs(Mll13-91.2e3)<10e3 && !(lep_ID_0==-lep_ID_2)) || (lep_ID_2==-lep_ID_3 && abs(Mll23-91.2e3)<10e3 && !(lep_ID_0==-lep_ID_1))) && ((lep_ID_0!=-lep_ID_1 || Mll01>12e3) && (lep_ID_0!=-lep_ID_2 || Mll02>12e3) && (lep_ID_0!=-lep_ID_3 || Mll03>12e3) && (lep_ID_1!=-lep_ID_2 || Mll12>12e3) && (lep_ID_1!=-lep_ID_3 || Mll13>12e3) && (lep_ID_2!=-lep_ID_3 || Mll23>12e3)) && (lep_promptLeptonIso_TagWeight_2<-0.5 && (abs(lep_ID_2)==13 || (abs(lep_ID_2)==11 && lep_isTightLH_2)) && lep_promptLeptonIso_TagWeight_3<-0.5 && (abs(lep_ID_3)==13 || (abs(lep_ID_3)==11 && lep_isTightLH_3))) && (nJets_OR_T_MV2c20_77==0) )
#####--- WWZ SF SR ---#####
###( passEventCleaning && quadlep_type && !total_charge && (lep_isTrigMatch_0 || lep_isTrigMatch_1 || lep_isTrigMatch_2 || lep_isTrigMatch_3 || matchDLTll01 || matchDLTll02 || matchDLTll12 || matchDLTll03 || matchDLTll13 || matchDLTll23) && ((lep_ID_0!=-lep_ID_1 || Mll01>12e3) && (lep_ID_0!=-lep_ID_2 || Mll02>12e3) && (lep_ID_0!=-lep_ID_3 || Mll03>12e3) && (lep_ID_1!=-lep_ID_2 || Mll12>12e3) && (lep_ID_1!=-lep_ID_3 || Mll13>12e3) && (lep_ID_2!=-lep_ID_3 || Mll23>12e3)) && (lep_promptLeptonIso_TagWeight_2<-0.5 && (abs(lep_ID_2)==13 || (abs(lep_ID_2)==11 && lep_isTightLH_2)) && lep_promptLeptonIso_TagWeight_3<-0.5 && (abs(lep_ID_3)==13 || (abs(lep_ID_3)==11 && lep_isTightLH_3))) && ((lep_ID_0==-lep_ID_1 && abs(Mll01-91.2e3)<10e3 && (lep_ID_2==-lep_ID_3)) || (lep_ID_0==-lep_ID_2 && abs(Mll02-91.2e3)<10e3 && (lep_ID_1==-lep_ID_3)) || (lep_ID_0==-lep_ID_3 && abs(Mll03-91.2e3)<10e3 && (lep_ID_1==-lep_ID_2)) || (lep_ID_1==-lep_ID_2 && abs(Mll12-91.2e3)<10e3 && (lep_ID_0==-lep_ID_3)) || (lep_ID_1==-lep_ID_3 && abs(Mll13-91.2e3)<10e3 && (lep_ID_0==-lep_ID_2)) || (lep_ID_2==-lep_ID_3 && abs(Mll23-91.2e3)<10e3 && (lep_ID_0==-lep_ID_1))) && (nJets_OR_T_MV2c20_77==0) && (MET_RefFinal_et/1000.>30.) )
###( passEventCleaning && quadlep_type && !total_charge && (lep_isTrigMatch_0 || lep_isTrigMatch_1 || lep_isTrigMatch_2 || lep_isTrigMatch_3 || matchDLTll01 || matchDLTll02 || matchDLTll12 || matchDLTll03 || matchDLTll13 || matchDLTll23) && ((lep_ID_0!=-lep_ID_1 || Mll01>12e3) && (lep_ID_0!=-lep_ID_2 || Mll02>12e3) && (lep_ID_0!=-lep_ID_3 || Mll03>12e3) && (lep_ID_1!=-lep_ID_2 || Mll12>12e3) && (lep_ID_1!=-lep_ID_3 || Mll13>12e3) && (lep_ID_2!=-lep_ID_3 || Mll23>12e3)) && (lep_promptLeptonIso_TagWeight_2<-0.5 && (abs(lep_ID_2)==13 || (abs(lep_ID_2)==11 && lep_isTightLH_2)) && lep_promptLeptonIso_TagWeight_3<-0.5 && (abs(lep_ID_3)==13 || (abs(lep_ID_3)==11 && lep_isTightLH_3))) && ((lep_ID_0==-lep_ID_1 && abs(Mll01-91.2e3)<10e3 && (lep_ID_2==-lep_ID_3)) || (lep_ID_0==-lep_ID_2 && abs(Mll02-91.2e3)<10e3 && (lep_ID_1==-lep_ID_3)) || (lep_ID_0==-lep_ID_3 && abs(Mll03-91.2e3)<10e3 && (lep_ID_1==-lep_ID_2)) || (lep_ID_1==-lep_ID_2 && abs(Mll12-91.2e3)<10e3 && (lep_ID_0==-lep_ID_3)) || (lep_ID_1==-lep_ID_3 && abs(Mll13-91.2e3)<10e3 && (lep_ID_0==-lep_ID_2)) || (lep_ID_2==-lep_ID_3 && abs(Mll23-91.2e3)<10e3 && (lep_ID_0==-lep_ID_1))) && (nJets_OR_T_MV2c20_77==0) )
