user.kgrevtso.364530.Sherpa.DAOD_HIGG8D1.e5928_e5984_s3126_r9781_r9778_p3371.2018-03-16_LPmc16c_v05_output.root
user.kgrevtso.364138.Sherpa.DAOD_HIGG8D1.e5313_e5984_s3126_r9781_r9778_p3371.2018-03-16_LPmc16c_v05_output.root
user.kgrevtso.364172.Sherpa.DAOD_HIGG8D1.e5340_e5984_s3126_r9781_r9778_p3371.2018-03-16_LPmc16c_v05_output.root
user.kgrevtso.410277.aMcAtNloPythia8EvtGen.DAOD_HIGG8D1.e6087_e5984_s3126_r9781_r9778_p3371.2018-03-16_LPmc16c_v05_output.root
user.kgrevtso.410144.Sherpa.DAOD_HIGG8D1.e4686_e5984_s3126_r9781_r9778_p3371.2018-03-16_LPmc16c_v05_output.root
user.kgrevtso.364168.Sherpa.DAOD_HIGG8D1.e5340_e5984_s3126_r9781_r9778_p3371.2018-03-16_LPmc16c_v05_output.root
user.kgrevtso.364109.Sherpa.DAOD_HIGG8D1.e5271_e5984_s3126_r9781_r9778_p3371.2018-03-16_LPmc16c_v05_output.root
user.kgrevtso.364130.Sherpa.DAOD_HIGG8D1.e5307_e5984_s3126_r9781_r9778_p3371.2018-03-16_LPmc16c_v05_output.root
user.kgrevtso.364508.Sherpa.DAOD_HIGG8D1.e5928_e5984_s3126_r9781_r9778_p3371.2018-03-16_LPmc16c_v05_output.root
user.kgrevtso.364209.Sherpa.DAOD_HIGG8D1.e5421_e5984_s3126_r9781_r9778_p3371.2018-03-16_LPmc16c_v05_output.root
user.kgrevtso.342282.PowhegPythia8EvtGen.DAOD_HIGG8D1.e4850_e5984_s3126_r9781_r9778_p3371.2018-03-16_LPmc16c_v05_output.root
user.kgrevtso.364194.Sherpa.DAOD_HIGG8D1.e5340_e5984_s3126_r9781_r9778_p3371.2018-03-16_LPmc16c_v05_output.root
user.kgrevtso.364199.Sherpa.DAOD_HIGG8D1.e5421_e5984_s3126_r9781_r9778_p3371.2018-03-16_LPmc16c_v05_output.root
user.kgrevtso.364134.Sherpa.DAOD_HIGG8D1.e5307_e5984_s3126_r9781_r9778_p3371.2018-03-16_LPmc16c_v05_output.root
user.kgrevtso.364181.Sherpa.DAOD_HIGG8D1.e5340_e5984_s3126_r9781_r9778_p3371.2018-03-16_LPmc16c_v05_output.root
user.kgrevtso.364109.Sherpa.DAOD_HIGG8D1.e5271_s3126_r9781_r9778_p3371.2018-03-16_LPmc16c_v05_output.root
user.kgrevtso.410278.aMcAtNloPythia8EvtGen.DAOD_HIGG8D1.e6087_e5984_s3126_r9781_r9778_p3371.2018-03-16_LPmc16c_v05_output.root
user.kgrevtso.364511.Sherpa.DAOD_HIGG8D1.e5928_e5984_s3126_r9781_r9778_p3371.2018-03-16_LPmc16c_v05_output.root
user.kgrevtso.364114.Sherpa.DAOD_HIGG8D1.e5299_s3126_r9781_r9778_p3371.2018-03-16_LPmc16c_v05_output.root
user.kgrevtso.364123.Sherpa.DAOD_HIGG8D1.e5299_e5984_s3126_r9781_r9778_p3371.2018-03-16_LPmc16c_v05_output.root
user.kgrevtso.364127.Sherpa.DAOD_HIGG8D1.e5299_e5984_s3126_r9781_r9778_p3371.2018-03-16_LPmc16c_v05_output.root
user.kgrevtso.364183.Sherpa.DAOD_HIGG8D1.e5340_e5984_s3126_r9781_r9778_p3371.2018-03-16_LPmc16c_v05_output.root
user.kgrevtso.364205.Sherpa.DAOD_HIGG8D1.e5421_e5984_s3126_r9781_r9778_p3371.2018-03-16_LPmc16c_v05_output.root
user.kgrevtso.364204.Sherpa.DAOD_HIGG8D1.e5421_e5984_s3126_r9781_r9778_p3371.2018-03-16_LPmc16c_v05_output.root
user.kgrevtso.364513.Sherpa.DAOD_HIGG8D1.e5982_e5984_s3126_r9781_r9778_p3371.2018-03-16_LPmc16c_v05_output.root
user.kgrevtso.341998.aMcAtNloHppEG.DAOD_HIGG8D1.e4394_e5984_s3126_r9781_r9778_p3371.2018-03-16_LPmc16c_v05_output.root
user.kgrevtso.364500.Sherpa.DAOD_HIGG8D1.e5928_e5984_s3126_r9781_r9778_p3371.2018-03-16_LPmc16c_v05_output.root
user.kgrevtso.410082.MadGraphPythia8EvtGen.DAOD_HIGG8D1.e4404_e5984_s3126_r9781_r9778_p3371.2018-03-16_LPmc16c_v05_output.root
user.kgrevtso.364534.Sherpa.DAOD_HIGG8D1.e5928_e5984_s3126_r9781_r9778_p3371.2018-03-16_LPmc16c_v05_output.root
user.kgrevtso.364214.Sherpa.DAOD_HIGG8D1.e5421_e5984_s3126_r9781_r9778_p3371.2018-03-16_LPmc16c_v05_output.root
user.kgrevtso.364242.Sherpa.DAOD_HIGG8D1.e5887_e5984_s3126_r9781_r9778_p3371.2018-03-16_LPmc16c_v05_output.root
user.kgrevtso.364533.Sherpa.DAOD_HIGG8D1.e5928_e5984_s3126_r9781_r9778_p3371.2018-03-16_LPmc16c_v05_output.root
user.kgrevtso.364135.Sherpa.DAOD_HIGG8D1.e5307_e5984_s3126_r9781_r9778_p3371.2018-03-16_LPmc16c_v05_output.root
user.kgrevtso.364137.Sherpa.DAOD_HIGG8D1.e5307_e5984_s3126_r9781_r9778_p3371.2018-03-16_LPmc16c_v05_output.root
user.kgrevtso.364189.Sherpa.DAOD_HIGG8D1.e5340_e5984_s3126_r9781_r9778_p3371.2018-03-16_LPmc16c_v05_output.root
user.kgrevtso.364182.Sherpa.DAOD_HIGG8D1.e5340_e5984_s3126_r9781_r9778_p3371.2018-03-16_LPmc16c_v05_output.root
user.kgrevtso.364529.Sherpa.DAOD_HIGG8D1.e5928_e5984_s3126_r9781_r9778_p3371.2018-03-16_LPmc16c_v05_output.root
user.kgrevtso.364173.Sherpa.DAOD_HIGG8D1.e5340_e5984_s3126_r9781_r9778_p3371.2018-03-16_LPmc16c_v05_output.root
user.kgrevtso.364107.Sherpa.DAOD_HIGG8D1.e5271_s3126_r9781_r9778_p3371.2018-03-16_LPmc16c_v05_output.root
user.kgrevtso.364184.Sherpa.DAOD_HIGG8D1.e5340_e5984_s3126_r9781_r9778_p3371.2018-03-16_LPmc16c_v05_output.root
user.kgrevtso.364171.Sherpa.DAOD_HIGG8D1.e5340_e5984_s3126_r9781_r9778_p3371.2018-03-16_LPmc16c_v05_output.root
user.kgrevtso.364174.Sherpa.DAOD_HIGG8D1.e5340_e5984_s3126_r9781_r9778_p3371.2018-03-16_LPmc16c_v05_output.root
user.kgrevtso.364206.Sherpa.DAOD_HIGG8D1.e5421_e5984_s3126_r9781_r9778_p3371.2018-03-16_LPmc16c_v05_output.root
user.kgrevtso.364195.Sherpa.DAOD_HIGG8D1.e5340_e5984_s3126_r9781_r9778_p3371.2018-03-16_LPmc16c_v05_output.root
user.kgrevtso.364177.Sherpa.DAOD_HIGG8D1.e5340_e5984_s3126_r9781_r9778_p3371.2018-03-16_LPmc16c_v05_output.root
user.kgrevtso.364191.Sherpa.DAOD_HIGG8D1.e5340_e5984_s3126_r9781_r9778_p3371.2018-03-16_LPmc16c_v05_output.root
user.kgrevtso.364100.Sherpa.DAOD_HIGG8D1.e5271_e5984_s3126_r9781_r9778_p3371.2018-03-16_LPmc16c_v05_output.root
user.kgrevtso.364139.Sherpa.DAOD_HIGG8D1.e5313_e5984_s3126_r9781_r9778_p3371.2018-03-16_LPmc16c_v05_output.root
user.kgrevtso.364159.Sherpa.DAOD_HIGG8D1.e5340_e5984_s3126_r9781_r9778_p3371.2018-03-16_LPmc16c_v05_output.root
user.kgrevtso.364202.Sherpa.DAOD_HIGG8D1.e5421_e5984_s3126_r9781_r9778_p3371.2018-03-16_LPmc16c_v05_output.root
user.kgrevtso.364162.Sherpa.DAOD_HIGG8D1.e5340_e5984_s3126_r9781_r9778_p3371.2018-03-16_LPmc16c_v05_output.root
user.kgrevtso.364163.Sherpa.DAOD_HIGG8D1.e5340_e5984_s3126_r9781_r9778_p3371.2018-03-16_LPmc16c_v05_output.root
user.kgrevtso.341271.aMcAtNloHerwigppEvtGen.DAOD_HIGG8D1.e4277_e5984_s3126_r9781_r9778_p3371.2018-03-16_LPmc16c_v05_output.root
user.kgrevtso.410143.Sherpa.DAOD_HIGG8D1.e4686_e5984_s3126_r9781_r9778_p3371.2018-03-16_LPmc16c_v05_output.root
user.kgrevtso.364133.Sherpa.DAOD_HIGG8D1.e5307_e5984_s3126_r9781_r9778_p3371.2018-03-16_LPmc16c_v05_output.root
user.kgrevtso.364211.Sherpa.DAOD_HIGG8D1.e5421_e5984_s3126_r9781_r9778_p3371.2018-03-16_LPmc16c_v05_output.root
user.kgrevtso.364176.Sherpa.DAOD_HIGG8D1.e5340_e5984_s3126_r9781_r9778_p3371.2018-03-16_LPmc16c_v05_output.root
user.kgrevtso.410025.PowhegPythiaEvtGen.DAOD_HIGG8D1.e3998_s3126_r9781_r9778_p3371.2018-03-16_LPmc16c_v05_output.root
user.kgrevtso.364505.Sherpa.DAOD_HIGG8D1.e5928_e5984_s3126_r9781_r9778_p3371.2018-03-16_LPmc16c_v05_output.root
user.kgrevtso.364165.Sherpa.DAOD_HIGG8D1.e5340_e5984_s3126_r9781_r9778_p3371.2018-03-16_LPmc16c_v05_output.root
user.kgrevtso.364243.Sherpa.DAOD_HIGG8D1.e5887_e5984_s3126_r9781_r9778_p3371.2018-03-16_LPmc16c_v05_output.root
user.kgrevtso.364136.Sherpa.DAOD_HIGG8D1.e5307_e5984_s3126_r9781_r9778_p3371.2018-03-16_LPmc16c_v05_output.root
user.kgrevtso.364186.Sherpa.DAOD_HIGG8D1.e5340_e5984_s3126_r9781_r9778_p3371.2018-03-16_LPmc16c_v05_output.root
user.kgrevtso.364215.Sherpa.DAOD_HIGG8D1.e5421_e5984_s3126_r9781_r9778_p3371.2018-03-16_LPmc16c_v05_output.root
user.kgrevtso.364245.Sherpa.DAOD_HIGG8D1.e5887_e5984_s3126_r9781_r9778_p3371.2018-03-16_LPmc16c_v05_output.root
user.kgrevtso.364212.Sherpa.DAOD_HIGG8D1.e5421_e5984_s3126_r9781_r9778_p3371.2018-03-16_LPmc16c_v05_output.root
user.kgrevtso.364101.Sherpa.DAOD_HIGG8D1.e5271_s3126_r9781_r9778_p3371.2018-03-16_LPmc16c_v05_output.root
user.kgrevtso.364114.Sherpa.DAOD_HIGG8D1.e5299_e5984_s3126_r9781_r9778_p3371.2018-03-16_LPmc16c_v05_output.root
user.kgrevtso.364119.Sherpa.DAOD_HIGG8D1.e5299_e5984_s3126_r9781_r9778_p3371.2018-03-16_LPmc16c_v05_output.root
user.kgrevtso.364115.Sherpa.DAOD_HIGG8D1.e5299_e5984_s3126_r9781_r9778_p3371.2018-03-16_LPmc16c_v05_output.root
user.kgrevtso.342285.Pythia8EvtGen.DAOD_HIGG8D1.e4246_e5984_s3126_r9781_r9778_p3371.2018-03-16_LPmc16c_v05_output.root
user.kgrevtso.364187.Sherpa.DAOD_HIGG8D1.e5340_e5984_s3126_r9781_r9778_p3371.2018-03-16_LPmc16c_v05_output.root
user.kgrevtso.364111.Sherpa.DAOD_HIGG8D1.e5271_e5984_s3126_r9781_r9778_p3371.2018-03-16_LPmc16c_v05_output.root
user.kgrevtso.364254.Sherpa.DAOD_HIGG8D1.e5916_e5984_s3126_r9781_r9778_p3371.2018-03-16_LPmc16c_v05_output.root
user.kgrevtso.410251.Sherpa.DAOD_HIGG8D1.e5450_e5984_s3126_r9781_r9778_p3371.2018-03-16_LPmc16c_v05_output.root
user.kgrevtso.364521.Sherpa.DAOD_HIGG8D1.e5928_e5984_s3126_r9781_r9778_p3371.2018-03-16_LPmc16c_v05_output.root
user.kgrevtso.364527.Sherpa.DAOD_HIGG8D1.e5928_e5984_s3126_r9781_r9778_p3371.2018-03-16_LPmc16c_v05_output.root
user.kgrevtso.410250.Sherpa.DAOD_HIGG8D1.e5450_e5984_s3126_r9781_r9778_p3371.2018-03-16_LPmc16c_v05_output.root
user.kgrevtso.364120.Sherpa.DAOD_HIGG8D1.e5299_e5984_s3126_r9781_r9778_p3371.2018-03-16_LPmc16c_v05_output.root
user.kgrevtso.364510.Sherpa.DAOD_HIGG8D1.e5928_e5984_s3126_r9781_r9778_p3371.2018-03-16_LPmc16c_v05_output.root
user.kgrevtso.364175.Sherpa.DAOD_HIGG8D1.e5340_e5984_s3126_r9781_r9778_p3371.2018-03-16_LPmc16c_v05_output.root
user.kgrevtso.364249.Sherpa.DAOD_HIGG8D1.e5887_e5984_s3126_r9781_r9778_p3371.2018-03-16_LPmc16c_v05_output.root
user.kgrevtso.364113.Sherpa.DAOD_HIGG8D1.e5271_e5984_s3126_r9781_r9778_p3371.2018-03-16_LPmc16c_v05_output.root
user.kgrevtso.364116.Sherpa.DAOD_HIGG8D1.e5299_e5984_s3126_r9781_r9778_p3371.2018-03-16_LPmc16c_v05_output.root
user.kgrevtso.364117.Sherpa.DAOD_HIGG8D1.e5299_e5984_s3126_r9781_r9778_p3371.2018-03-16_LPmc16c_v05_output.root
user.kgrevtso.364164.Sherpa.DAOD_HIGG8D1.e5340_e5984_s3126_r9781_r9778_p3371.2018-03-16_LPmc16c_v05_output.root
user.kgrevtso.364104.Sherpa.DAOD_HIGG8D1.e5271_e5984_s3126_r9781_r9778_p3371.2018-03-16_LPmc16c_v05_output.root
user.kgrevtso.364129.Sherpa.DAOD_HIGG8D1.e5307_e5984_s3126_r9781_r9778_p3371.2018-03-16_LPmc16c_v05_output.root
user.kgrevtso.364255.Sherpa.DAOD_HIGG8D1.e5916_e5984_s3126_r9781_r9778_p3371.2018-03-16_LPmc16c_v05_output.root
user.kgrevtso.364502.Sherpa.DAOD_HIGG8D1.e5928_e5984_s3126_r9781_r9778_p3371.2018-03-16_LPmc16c_v05_output.root
user.kgrevtso.364200.Sherpa.DAOD_HIGG8D1.e5421_e5984_s3126_r9781_r9778_p3371.2018-03-16_LPmc16c_v05_output.root
user.kgrevtso.410014.PowhegPythiaEvtGen.DAOD_HIGG8D1.e3753_s3126_r9781_r9778_p3371.2018-03-16_LPmc16c_v05_output.root
user.kgrevtso.364103.Sherpa.DAOD_HIGG8D1.e5271_s3126_r9781_r9778_p3371.2018-03-16_LPmc16c_v05_output.root
user.kgrevtso.364125.Sherpa.DAOD_HIGG8D1.e5299_e5984_s3126_r9781_r9778_p3371.2018-03-16_LPmc16c_v05_output.root
user.kgrevtso.364247.Sherpa.DAOD_HIGG8D1.e5887_e5984_s3126_r9781_r9778_p3371.2018-03-16_LPmc16c_v05_output.root
user.kgrevtso.364158.Sherpa.DAOD_HIGG8D1.e5340_e5984_s3126_r9781_r9778_p3371.2018-03-16_LPmc16c_v05_output.root
user.kgrevtso.364504.Sherpa.DAOD_HIGG8D1.e5928_e5984_s3126_r9781_r9778_p3371.2018-03-16_LPmc16c_v05_output.root
user.kgrevtso.341177.aMcAtNloHerwigppEvtGen.DAOD_HIGG8D1.e4277_e5984_s3126_r9781_r9778_p3371.2018-03-16_LPmc16c_v05_output.root
user.kgrevtso.364244.Sherpa.DAOD_HIGG8D1.e5887_e5984_s3126_r9781_r9778_p3371.2018-03-16_LPmc16c_v05_output.root
user.kgrevtso.364104.Sherpa.DAOD_HIGG8D1.e5271_s3126_r9781_r9778_p3371.2018-03-16_LPmc16c_v05_output.root
user.kgrevtso.364524.Sherpa.DAOD_HIGG8D1.e5928_e5984_s3126_r9781_r9778_p3371.2018-03-16_LPmc16c_v05_output.root
user.kgrevtso.364160.Sherpa.DAOD_HIGG8D1.e5340_e5984_s3126_r9781_r9778_p3371.2018-03-16_LPmc16c_v05_output.root
user.kgrevtso.364170.Sherpa.DAOD_HIGG8D1.e5340_e5984_s3126_r9781_r9778_p3371.2018-03-16_LPmc16c_v05_output.root
user.kgrevtso.364131.Sherpa.DAOD_HIGG8D1.e5307_e5984_s3126_r9781_r9778_p3371.2018-03-16_LPmc16c_v05_output.root
user.kgrevtso.364108.Sherpa.DAOD_HIGG8D1.e5271_s3126_r9781_r9778_p3371.2018-03-16_LPmc16c_v05_output.root
user.kgrevtso.364507.Sherpa.DAOD_HIGG8D1.e5928_e5984_s3126_r9781_r9778_p3371.2018-03-16_LPmc16c_v05_output.root
user.kgrevtso.364201.Sherpa.DAOD_HIGG8D1.e5421_e5984_s3126_r9781_r9778_p3371.2018-03-16_LPmc16c_v05_output.root
user.kgrevtso.364105.Sherpa.DAOD_HIGG8D1.e5271_e5984_s3126_r9781_r9778_p3371.2018-03-16_LPmc16c_v05_output.root
user.kgrevtso.364213.Sherpa.DAOD_HIGG8D1.e5421_e5984_s3126_r9781_r9778_p3371.2018-03-16_LPmc16c_v05_output.root
user.kgrevtso.364167.Sherpa.DAOD_HIGG8D1.e5340_e5984_s3126_r9781_r9778_p3371.2018-03-16_LPmc16c_v05_output.root
user.kgrevtso.304014.MadGraphPythia8EvtGen.DAOD_HIGG8D1.e4324_e5984_s3126_r9781_r9778_p3371.2018-03-16_LPmc16c_v05_output.root
user.kgrevtso.364208.Sherpa.DAOD_HIGG8D1.e5421_e5984_s3126_r9781_r9778_p3371.2018-03-16_LPmc16c_v05_output.root
user.kgrevtso.364531.Sherpa.DAOD_HIGG8D1.e5928_e5984_s3126_r9781_r9778_p3371.2018-03-16_LPmc16c_v05_output.root
user.kgrevtso.364523.Sherpa.DAOD_HIGG8D1.e5928_e5984_s3126_r9781_r9778_p3371.2018-03-16_LPmc16c_v05_output.root
user.kgrevtso.364121.Sherpa.DAOD_HIGG8D1.e5299_e5984_s3126_r9781_r9778_p3371.2018-03-16_LPmc16c_v05_output.root
user.kgrevtso.364188.Sherpa.DAOD_HIGG8D1.e5340_e5984_s3126_r9781_r9778_p3371.2018-03-16_LPmc16c_v05_output.root
user.kgrevtso.364248.Sherpa.DAOD_HIGG8D1.e5887_e5984_s3126_r9781_r9778_p3371.2018-03-16_LPmc16c_v05_output.root
user.kgrevtso.364102.Sherpa.DAOD_HIGG8D1.e5271_s3126_r9781_r9778_p3371.2018-03-16_LPmc16c_v05_output.root
user.kgrevtso.364111.Sherpa.DAOD_HIGG8D1.e5271_s3126_r9781_r9778_p3371.2018-03-16_LPmc16c_v05_output.root
user.kgrevtso.364207.Sherpa.DAOD_HIGG8D1.e5421_e5984_s3126_r9781_r9778_p3371.2018-03-16_LPmc16c_v05_output.root
user.kgrevtso.364157.Sherpa.DAOD_HIGG8D1.e5340_e5984_s3126_r9781_r9778_p3371.2018-03-16_LPmc16c_v05_output.root
user.kgrevtso.364107.Sherpa.DAOD_HIGG8D1.e5271_e5984_s3126_r9781_r9778_p3371.2018-03-16_LPmc16c_v05_output.root
user.kgrevtso.364102.Sherpa.DAOD_HIGG8D1.e5271_e5984_s3126_r9781_r9778_p3371.2018-03-16_LPmc16c_v05_output.root
user.kgrevtso.364503.Sherpa.DAOD_HIGG8D1.e5928_e5984_s3126_r9781_r9778_p3371.2018-03-16_LPmc16c_v05_output.root
user.kgrevtso.364141.Sherpa.DAOD_HIGG8D1.e5307_e5984_s3126_r9781_r9778_p3371.2018-03-16_LPmc16c_v05_output.root
user.kgrevtso.364198.Sherpa.DAOD_HIGG8D1.e5421_e5984_s3126_r9781_r9778_p3371.2018-03-16_LPmc16c_v05_output.root
user.kgrevtso.364196.Sherpa.DAOD_HIGG8D1.e5340_e5984_s3126_r9781_r9778_p3371.2018-03-16_LPmc16c_v05_output.root
user.kgrevtso.364105.Sherpa.DAOD_HIGG8D1.e5271_s3126_r9781_r9778_p3371.2018-03-16_LPmc16c_v05_output.root
user.kgrevtso.364514.Sherpa.DAOD_HIGG8D1.e5928_e5984_s3126_r9781_r9778_p3371.2018-03-16_LPmc16c_v05_output.root
user.kgrevtso.364528.Sherpa.DAOD_HIGG8D1.e5928_e5984_s3126_r9781_r9778_p3371.2018-03-16_LPmc16c_v05_output.root
user.kgrevtso.364180.Sherpa.DAOD_HIGG8D1.e5340_e5984_s3126_r9781_r9778_p3371.2018-03-16_LPmc16c_v05_output.root
user.kgrevtso.364210.Sherpa.DAOD_HIGG8D1.e5421_e5984_s3126_r9781_r9778_p3371.2018-03-16_LPmc16c_v05_output.root
user.kgrevtso.364103.Sherpa.DAOD_HIGG8D1.e5271_e5984_s3126_r9781_r9778_p3371.2018-03-16_LPmc16c_v05_output.root
user.kgrevtso.364122.Sherpa.DAOD_HIGG8D1.e5299_e5984_s3126_r9781_r9778_p3371.2018-03-16_LPmc16c_v05_output.root
user.kgrevtso.364525.Sherpa.DAOD_HIGG8D1.e5928_e5984_s3126_r9781_r9778_p3371.2018-03-16_LPmc16c_v05_output.root
user.kgrevtso.410252.Sherpa.DAOD_HIGG8D1.e5450_e5984_s3126_r9781_r9778_p3371.2018-03-16_LPmc16c_v05_output.root
user.kgrevtso.364100.Sherpa.DAOD_HIGG8D1.e5271_s3126_r9781_r9778_p3371.2018-03-16_LPmc16c_v05_output.root
user.kgrevtso.364128.Sherpa.DAOD_HIGG8D1.e5307_e5984_s3126_r9781_r9778_p3371.2018-03-16_LPmc16c_v05_output.root
user.kgrevtso.364526.Sherpa.DAOD_HIGG8D1.e5928_e5984_s3126_r9781_r9778_p3371.2018-03-16_LPmc16c_v05_output.root
user.kgrevtso.364106.Sherpa.DAOD_HIGG8D1.e5271_e5984_s3126_r9781_r9778_p3371.2018-03-16_LPmc16c_v05_output.root
user.kgrevtso.364132.Sherpa.DAOD_HIGG8D1.e5307_e5984_s3126_r9781_r9778_p3371.2018-03-16_LPmc16c_v05_output.root
user.kgrevtso.364190.Sherpa.DAOD_HIGG8D1.e5340_e5984_s3126_r9781_r9778_p3371.2018-03-16_LPmc16c_v05_output.root
user.kgrevtso.364108.Sherpa.DAOD_HIGG8D1.e5271_e5984_s3126_r9781_r9778_p3371.2018-03-16_LPmc16c_v05_output.root
user.kgrevtso.364101.Sherpa.DAOD_HIGG8D1.e5271_e5984_s3126_r9781_r9778_p3371.2018-03-16_LPmc16c_v05_output.root
user.kgrevtso.364178.Sherpa.DAOD_HIGG8D1.e5340_e5984_s3126_r9781_r9778_p3371.2018-03-16_LPmc16c_v05_output.root
user.kgrevtso.410013.PowhegPythiaEvtGen.DAOD_HIGG8D1.e3753_s3126_r9781_r9778_p3371.2018-03-16_LPmc16c_v05_output.root
user.kgrevtso.410276.aMcAtNloPythia8EvtGen.DAOD_HIGG8D1.e6087_e5984_s3126_r9781_r9778_p3371.2018-03-16_LPmc16c_v05_output.root
user.kgrevtso.364192.Sherpa.DAOD_HIGG8D1.e5340_e5984_s3126_r9781_r9778_p3371.2018-03-16_LPmc16c_v05_output.root
user.kgrevtso.364246.Sherpa.DAOD_HIGG8D1.e5887_e5984_s3126_r9781_r9778_p3371.2018-03-16_LPmc16c_v05_output.root
user.kgrevtso.364169.Sherpa.DAOD_HIGG8D1.e5340_e5984_s3126_r9781_r9778_p3371.2018-03-16_LPmc16c_v05_output.root
user.kgrevtso.364106.Sherpa.DAOD_HIGG8D1.e5271_s3126_r9781_r9778_p3371.2018-03-16_LPmc16c_v05_output.root
user.kgrevtso.364513.Sherpa.DAOD_HIGG8D1.e5928_e5984_s3126_r9781_r9778_p3371.2018-03-16_LPmc16c_v05_output.root
user.kgrevtso.364522.Sherpa.DAOD_HIGG8D1.e5928_e5984_s3126_r9781_r9778_p3371.2018-03-16_LPmc16c_v05_output.root
user.kgrevtso.410142.Sherpa.DAOD_HIGG8D1.e4686_e5984_s3126_r9781_r9778_p3371.2018-03-16_LPmc16c_v05_output.root
user.kgrevtso.364166.Sherpa.DAOD_HIGG8D1.e5340_e5984_s3126_r9781_r9778_p3371.2018-03-16_LPmc16c_v05_output.root
user.kgrevtso.364112.Sherpa.DAOD_HIGG8D1.e5271_s3126_r9781_r9778_p3371.2018-03-16_LPmc16c_v05_output.root
user.kgrevtso.364112.Sherpa.DAOD_HIGG8D1.e5271_e5984_s3126_r9781_r9778_p3371.2018-03-16_LPmc16c_v05_output.root
user.kgrevtso.364535.Sherpa.DAOD_HIGG8D1.e5928_e5984_s3126_r9781_r9778_p3371.2018-03-16_LPmc16c_v05_output.root
user.kgrevtso.364185.Sherpa.DAOD_HIGG8D1.e5340_e5984_s3126_r9781_r9778_p3371.2018-03-16_LPmc16c_v05_output.root
user.kgrevtso.364532.Sherpa.DAOD_HIGG8D1.e5928_e5984_s3126_r9781_r9778_p3371.2018-03-16_LPmc16c_v05_output.root
user.kgrevtso.364179.Sherpa.DAOD_HIGG8D1.e5340_e5984_s3126_r9781_r9778_p3371.2018-03-16_LPmc16c_v05_output.root
user.kgrevtso.364118.Sherpa.DAOD_HIGG8D1.e5299_e5984_s3126_r9781_r9778_p3371.2018-03-16_LPmc16c_v05_output.root
user.kgrevtso.364501.Sherpa.DAOD_HIGG8D1.e5928_e5984_s3126_r9781_r9778_p3371.2018-03-16_LPmc16c_v05_output.root
user.kgrevtso.364203.Sherpa.DAOD_HIGG8D1.e5421_e5984_s3126_r9781_r9778_p3371.2018-03-16_LPmc16c_v05_output.root
user.kgrevtso.364124.Sherpa.DAOD_HIGG8D1.e5299_e5984_s3126_r9781_r9778_p3371.2018-03-16_LPmc16c_v05_output.root
user.kgrevtso.342283.PowhegPythia8EvtGen.DAOD_HIGG8D1.e4246_e5984_s3126_r9781_r9778_p3371.2018-03-16_LPmc16c_v05_output.root
user.kgrevtso.364512.Sherpa.DAOD_HIGG8D1.e5928_e5984_s3126_r9781_r9778_p3371.2018-03-16_LPmc16c_v05_output.root
user.kgrevtso.364197.Sherpa.DAOD_HIGG8D1.e5340_e5984_s3126_r9781_r9778_p3371.2018-03-16_LPmc16c_v05_output.root
user.kgrevtso.364509.Sherpa.DAOD_HIGG8D1.e5928_e5984_s3126_r9781_r9778_p3371.2018-03-16_LPmc16c_v05_output.root
user.kgrevtso.364193.Sherpa.DAOD_HIGG8D1.e5340_e5984_s3126_r9781_r9778_p3371.2018-03-16_LPmc16c_v05_output.root
user.kgrevtso.364140.Sherpa.DAOD_HIGG8D1.e5307_e5984_s3126_r9781_r9778_p3371.2018-03-16_LPmc16c_v05_output.root
user.kgrevtso.364110.Sherpa.DAOD_HIGG8D1.e5271_e5984_s3126_r9781_r9778_p3371.2018-03-16_LPmc16c_v05_output.root
user.kgrevtso.341270.aMcAtNloHerwigppEvtGen.DAOD_HIGG8D1.e4277_e5984_s3126_r9781_r9778_p3371.2018-03-16_LPmc16c_v05_output.root
user.kgrevtso.364110.Sherpa.DAOD_HIGG8D1.e5271_s3126_r9781_r9778_p3371.2018-03-16_LPmc16c_v05_output.root
user.kgrevtso.342284.Pythia8EvtGen.DAOD_HIGG8D1.e4246_e5984_s3126_r9781_r9778_p3371.2018-03-16_LPmc16c_v05_output.root
user.kgrevtso.364113.Sherpa.DAOD_HIGG8D1.e5271_s3126_r9781_r9778_p3371.2018-03-16_LPmc16c_v05_output.root
user.kgrevtso.410081.MadGraphPythia8EvtGen.DAOD_HIGG8D1.e4111_e5984_s3126_r9781_r9778_p3371.2018-03-16_HPmc16c_v05_output.root
user.kgrevtso.363358.Sherpa.DAOD_HIGG8D1.e5525_e5984_s3126_r9781_r9778_p3371.2018-03-16_HPmc16c_v05_output.root
user.kgrevtso.410501.PowhegPythia8EvtGen.DAOD_HIGG8D1.e5458_s3126_r9781_r9778_p3371.2018-03-16_HPmc16c_v05_output.root
user.kgrevtso.345674.PowhegPythia8EvtGen.DAOD_HIGG8D1.e6322_e5984_s3126_r9781_r9778_p3371.2018-03-16_HPmc16c_v05_output.root
user.kgrevtso.345672.PowhegPythia8EvtGen.DAOD_HIGG8D1.e6322_e5984_s3126_r9781_r9778_p3371.2018-03-16_HPmc16c_v05_output.root
user.kgrevtso.343367.aMcAtNloPythia8EvtGen.DAOD_HIGG8D1.e4706_e5984_s3126_r9781_r9778_p3371.2018-03-16_HPmc16c_v05_output.root
user.kgrevtso.363355.Sherpa.DAOD_HIGG8D1.e5525_e5984_s3126_r9781_r9778_p3371.2018-03-16_HPmc16c_v05_output.root
user.kgrevtso.363359.Sherpa.DAOD_HIGG8D1.e5583_e5984_s3126_r9781_r9778_p3371.2018-03-16_HPmc16c_v05_output.root
user.kgrevtso.410472.PhPy8EG.DAOD_HIGG8D1.e6348_e5984_s3126_r9781_r9778_p3371.2018-03-16_HPmc16c_v05_output.root
user.kgrevtso.410219.aMcAtNloPythia8EvtGen.DAOD_HIGG8D1.e5070_e5984_s3126_r9781_r9778_p3371.2018-03-16_HPmc16c_v05_output.root
user.kgrevtso.410470.PhPy8EG.DAOD_HIGG8D1.e6337_e5984_s3126_r9781_r9778_p3371.2018-03-16_HPmc16c_v05_output.root
user.kgrevtso.363358.Sherpa.DAOD_HIGG8D1.e5525_s3126_r9781_r9778_p3371.2018-03-16_HPmc16c_v05_output.root
user.kgrevtso.345673.PowhegPythia8EvtGen.DAOD_HIGG8D1.e6322_e5984_s3126_r9781_r9778_p3371.2018-03-16_HPmc16c_v05_output.root
user.kgrevtso.410503.PowhegPythia8EvtGen.DAOD_HIGG8D1.e5475_e5984_s3126_r9781_r9778_p3371.2018-03-16_HPmc16c_v05_output.root
user.kgrevtso.410220.aMcAtNloPythia8EvtGen.DAOD_HIGG8D1.e5070_e5984_s3126_r9781_r9778_p3371.2018-03-16_HPmc16c_v05_output.root
user.kgrevtso.363360.Sherpa.DAOD_HIGG8D1.e5983_e5984_s3126_r9781_r9778_p3371.2018-03-16_HPmc16c_v05_output.root
user.kgrevtso.363357.Sherpa.DAOD_HIGG8D1.e5525_e5984_s3126_r9781_r9778_p3371.2018-03-16_HPmc16c_v05_output.root
user.kgrevtso.363489.Sherpa.DAOD_HIGG8D1.e5525_e5984_s3126_r9781_r9778_p3371.2018-03-16_HPmc16c_v05_output.root
user.kgrevtso.364254.Sherpa.DAOD_HIGG8D1.e5916_e5984_s3126_r9781_r9778_p3371.2018-03-16_HPmc16c_v05_output.root
user.kgrevtso.410080.MadGraphPythia8EvtGen.DAOD_HIGG8D1.e4111_e5984_s3126_r9781_r9778_p3371.2018-03-16_HPmc16c_v05_output.root
user.kgrevtso.410218.aMcAtNloPythia8EvtGen.DAOD_HIGG8D1.e5070_e5984_s3126_r9781_r9778_p3371.2018-03-16_HPmc16c_v05_output.root
user.kgrevtso.410389.MadGraphPythia8EvtGen.DAOD_HIGG8D1.e6155_e5984_s3126_r9781_r9778_p3371.2018-03-16_HPmc16c_v05_output.root
user.kgrevtso.410156.aMcAtNloPythia8EvtGen.DAOD_HIGG8D1.e5070_e5984_s3126_r9781_r9778_p3371.2018-03-16_HPmc16c_v05_output.root
user.kgrevtso.364255.Sherpa.DAOD_HIGG8D1.e5916_e5984_s3126_r9781_r9778_p3371.2018-03-16_HPmc16c_v05_output.root
user.kgrevtso.363359.Sherpa.DAOD_HIGG8D1.e5583_s3126_r9781_r9778_p3371.2018-03-16_HPmc16c_v05_output.root
user.kgrevtso.364250.Sherpa.DAOD_HIGG8D1.e5894_e5984_s3126_r9781_r9778_p3371.2018-03-16_HPmc16c_v05_output.root
user.kgrevtso.410157.aMcAtNloPythia8EvtGen.DAOD_HIGG8D1.e5070_e5984_s3126_r9781_r9778_p3371.2018-03-16_HPmc16c_v05_output.root
user.kgrevtso.363356.Sherpa.DAOD_HIGG8D1.e5525_s3126_r9781_r9778_p3371.2018-03-16_HPmc16c_v05_output.root
user.kgrevtso.364253.Sherpa.DAOD_HIGG8D1.e5916_e5984_s3126_r9781_r9778_p3371.2018-03-16_HPmc16c_v05_output.root
user.kgrevtso.363489.Sherpa.DAOD_HIGG8D1.e5525_s3126_r9781_r9778_p3371.2018-03-16_HPmc16c_v05_output.root
user.kgrevtso.410471.PhPy8EG.DAOD_HIGG8D1.e6337_e5984_s3126_r9781_r9778_p3371.2018-03-16_HPmc16c_v05_output.root
user.kgrevtso.343366.aMcAtNloPythia8EvtGen.DAOD_HIGG8D1.e4706_e5984_s3126_r9781_r9778_p3371.2018-03-16_HPmc16c_v05_output.root
