user.magaras.363355.Sherpa.DAOD_HIGG8D1.e5525_s3126_r9364_r9315_p3371.2018-03-16_HPc_v05_output.root
user.magaras.410156.aMcAtNloPythia8EvtGen.DAOD_HIGG8D1.e5070_s3126_r9364_r9315_p3371.2018-03-16_HPc_v05_output.root
user.magaras.363358.Sherpa.DAOD_HIGG8D1.e5525_s3126_r9364_r9315_p3371.2018-03-16_HPc_v05_output.root
user.magaras.410157.aMcAtNloPythia8EvtGen.DAOD_HIGG8D1.e5070_s3126_r9364_r9315_p3371.2018-03-16_HPc_v05_output.root
user.magaras.363356.Sherpa.DAOD_HIGG8D1.e5525_s3126_r9364_r9315_p3371.2018-03-16_HPc_v05_output.root
user.magaras.363489.Sherpa.DAOD_HIGG8D1.e5525_s3126_r9364_r9315_p3371.2018-03-16_HPc_v05_output.root
user.magaras.410219.aMcAtNloPythia8EvtGen.DAOD_HIGG8D1.e5070_s3126_r9364_r9315_p3371.2018-03-16_HPc_v05_output.root
user.magaras.364253.Sherpa.DAOD_HIGG8D1.e5916_s3126_r9364_r9315_p3371.2018-03-16_HPc_v05_output.root
user.magaras.363360.Sherpa.DAOD_HIGG8D1.e5983_s3126_r9364_r9315_p3371.2018-03-16_HPc_v05_output.root
user.magaras.363359.Sherpa.DAOD_HIGG8D1.e5583_s3126_r9364_r9315_p3371.2018-03-16_HPc_v05_output.root
user.magaras.343367.aMcAtNloPythia8EvtGen.DAOD_HIGG8D1.e4706_e5984_s3126_r9364_r9315_p3371.2018-03-16_HPc_v05_output.root
user.magaras.345672.PowhegPythia8EvtGen.DAOD_HIGG8D1.e6322_e5984_s3126_r9364_r9315_p3371.2018-03-16_HPc_v05_output.root
user.magaras.363357.Sherpa.DAOD_HIGG8D1.e5525_s3126_r9364_r9315_p3371.2018-03-16_HPc_v05_output.root
user.magaras.410218.aMcAtNloPythia8EvtGen.DAOD_HIGG8D1.e5070_s3126_r9364_r9315_p3371.2018-03-16_HPc_v05_output.root
user.magaras.410501.PowhegPythia8EvtGen.DAOD_HIGG8D1.e5458_s3126_r9364_r9315_p3371.2018-03-16_HPc_v05_output.root
user.magaras.345674.PowhegPythia8EvtGen.DAOD_HIGG8D1.e6322_e5984_s3126_r9364_r9315_p3371.2018-03-16_HPc_v05_output.root
user.magaras.343365.aMcAtNloPythia8EvtGen.DAOD_HIGG8D1.e4706_e5984_s3126_r9364_r9315_p3371.2018-03-16_HPc_v05_output.root
user.magaras.410471.PhPy8EG.DAOD_HIGG8D1.e6337_e5984_s3126_r9364_r9315_p3371.2018-03-16_HPc_v05_output.root
user.magaras.410220.aMcAtNloPythia8EvtGen.DAOD_HIGG8D1.e5070_s3126_r9364_r9315_p3371.2018-03-16_HPc_v05_output.root
user.magaras.410470.PhPy8EG.DAOD_HIGG8D1.e6337_e5984_s3126_r9364_r9315_p3371.2018-03-16_HPc_v05_output.root
user.magaras.364250.Sherpa.DAOD_HIGG8D1.e5894_s3126_r9364_r9315_p3371.2018-03-16_HPc_v05_output.root
user.magaras.364254.Sherpa.DAOD_HIGG8D1.e5916_s3126_r9364_r9315_p3371.2018-03-16_HPc_v05_output.root
user.magaras.410080.MadGraphPythia8EvtGen.DAOD_HIGG8D1.e4111_s3126_r9364_r9315_p3371.2018-03-16_HPc_v05_output.root
user.magaras.343366.aMcAtNloPythia8EvtGen.DAOD_HIGG8D1.e4706_e5984_s3126_r9364_r9315_p3371.2018-03-16_HPc_v05_output.root
user.magaras.364255.Sherpa.DAOD_HIGG8D1.e5916_s3126_r9364_r9315_p3371.2018-03-16_HPc_v05_output.root
user.magaras.410081.MadGraphPythia8EvtGen.DAOD_HIGG8D1.e4111_s3126_r9364_r9315_p3371.2018-03-16_HPc_v05_output.root
user.magaras.345673.PowhegPythia8EvtGen.DAOD_HIGG8D1.e6322_e5984_s3126_r9364_r9315_p3371.2018-03-16_HPc_v05_output.root
user.magaras.410155.aMcAtNloPythia8EvtGen.DAOD_HIGG8D1.e5070_s3126_r9364_r9315_p3371.2018-03-16_HPc_v05_output.root
user.magaras.342561.aMcAtNloHerwigppEvtGen.DAOD_HIGG8D1.e4540_s3126_r9364_r9315_p3371.2018-03-16_HPc_v05_output.root
user.magaras.410503.PowhegPythia8EvtGen.DAOD_HIGG8D1.e5475_s3126_r9364_r9315_p3371.2018-03-16_HPc_v05_output.root
user.magaras.410472.PhPy8EG.DAOD_HIGG8D1.e6348_e5984_s3126_r9364_r9315_p3371.2018-03-16_HPc_v05_output.root
user.magaras.410389.MadGraphPythia8EvtGen.DAOD_HIGG8D1.e6155_e5984_s3126_r9364_r9315_p3371.2018-03-16_HPc_v05_output.root
user.magaras.364534.Sherpa.DAOD_HIGG8D1.e5928_s3126_r9364_r9315_p3371.2018-03-16_LPa_v05_output.root
user.magaras.364507.Sherpa.DAOD_HIGG8D1.e5928_e5984_s3126_r9364_r9315_p3371.2018-03-16_LPa_v05_output.root
user.magaras.364526.Sherpa.DAOD_HIGG8D1.e5928_s3126_r9364_r9315_p3371.2018-03-16_LPa_v05_output.root
user.magaras.364167.Sherpa.DAOD_HIGG8D1.e5340_s3126_r9364_r9315_p3371.2018-03-16_LPa_v05_output.root
user.magaras.364501.Sherpa.DAOD_HIGG8D1.e5928_e5984_s3126_r9364_r9315_p3371.2018-03-16_LPa_v05_output.root
user.magaras.364249.Sherpa.DAOD_HIGG8D1.e5887_s3126_r9364_r9315_p3371.2018-03-16_LPa_v05_output.root
user.magaras.364186.Sherpa.DAOD_HIGG8D1.e5340_s3126_r9364_r9315_p3371.2018-03-16_LPa_v05_output.root
user.magaras.364179.Sherpa.DAOD_HIGG8D1.e5340_s3126_r9364_r9315_p3371.2018-03-16_LPa_v05_output.root
user.magaras.364245.Sherpa.DAOD_HIGG8D1.e5887_s3126_r9364_r9315_p3371.2018-03-16_LPa_v05_output.root
user.magaras.364175.Sherpa.DAOD_HIGG8D1.e5340_s3126_r9364_r9315_p3371.2018-03-16_LPa_v05_output.root
user.magaras.361251.Pythia8B.DAOD_HIGG8D1.e3878_s3126_r9364_r9315_p3371.2018-03-16_LPa_v05_output.root
user.magaras.343267.MadGraphPythia8EvtGen.DAOD_HIGG8D1.e4606_e5984_s3126_r9364_r9315_p3371.2018-03-16_LPa_v05_output.root
user.magaras.364211.Sherpa.DAOD_HIGG8D1.e5421_s3126_r9364_r9315_p3371.2018-03-16_LPa_v05_output.root
user.magaras.364535.Sherpa.DAOD_HIGG8D1.e5928_s3126_r9364_r9315_p3371.2018-03-16_LPa_v05_output.root
user.magaras.364207.Sherpa.DAOD_HIGG8D1.e5421_s3126_r9364_r9315_p3371.2018-03-16_LPa_v05_output.root
user.magaras.364132.Sherpa.DAOD_HIGG8D1.e5307_s3126_r9364_r9315_p3371.2018-03-16_LPa_v05_output.root
user.magaras.364208.Sherpa.DAOD_HIGG8D1.e5421_s3126_r9364_r9315_p3371.2018-03-16_LPa_v05_output.root
user.magaras.364201.Sherpa.DAOD_HIGG8D1.e5421_s3126_r9364_r9315_p3371.2018-03-16_LPa_v05_output.root
user.magaras.364103.Sherpa.DAOD_HIGG8D1.e5271_s3126_r9364_r9315_p3371.2018-03-16_LPa_v05_output.root
user.magaras.364133.Sherpa.DAOD_HIGG8D1.e5307_s3126_r9364_r9315_p3371.2018-03-16_LPa_v05_output.root
user.magaras.364511.Sherpa.DAOD_HIGG8D1.e5928_s3126_r9364_r9315_p3371.2018-03-16_LPa_v05_output.root
user.magaras.364503.Sherpa.DAOD_HIGG8D1.e5928_e5984_s3126_r9364_r9315_p3371.2018-03-16_LPa_v05_output.root
user.magaras.364184.Sherpa.DAOD_HIGG8D1.e5340_s3126_r9364_r9315_p3371.2018-03-16_LPa_v05_output.root
user.magaras.364202.Sherpa.DAOD_HIGG8D1.e5421_s3126_r9364_r9315_p3371.2018-03-16_LPa_v05_output.root
user.magaras.364116.Sherpa.DAOD_HIGG8D1.e5299_s3126_r9364_r9315_p3371.2018-03-16_LPa_v05_output.root
user.magaras.364159.Sherpa.DAOD_HIGG8D1.e5340_s3126_r9364_r9315_p3371.2018-03-16_LPa_v05_output.root
user.magaras.364200.Sherpa.DAOD_HIGG8D1.e5421_s3126_r9364_r9315_p3371.2018-03-16_LPa_v05_output.root
user.magaras.364162.Sherpa.DAOD_HIGG8D1.e5340_s3126_r9364_r9315_p3371.2018-03-16_LPa_v05_output.root
user.magaras.410025.PowhegPythiaEvtGen.DAOD_HIGG8D1.e3998_s3126_r9364_r9315_p3371.2018-03-16_LPa_v05_output.root
user.magaras.364531.Sherpa.DAOD_HIGG8D1.e5928_s3126_r9364_r9315_p3371.2018-03-16_LPa_v05_output.root
user.magaras.364138.Sherpa.DAOD_HIGG8D1.e5313_s3126_r9364_r9315_p3371.2018-03-16_LPa_v05_output.root
user.magaras.364187.Sherpa.DAOD_HIGG8D1.e5340_s3126_r9364_r9315_p3371.2018-03-16_LPa_v05_output.root
user.magaras.341177.aMcAtNloHerwigppEvtGen.DAOD_HIGG8D1.e4277_s3126_r9364_r9315_p3371.2018-03-16_LPa_v05_output.root
user.magaras.364114.Sherpa.DAOD_HIGG8D1.e5299_s3126_r9364_r9315_p3371.2018-03-16_LPa_v05_output.root
user.magaras.341271.aMcAtNloHerwigppEvtGen.DAOD_HIGG8D1.e4277_s3126_r9364_r9315_p3371.2018-03-16_LPa_v05_output.root
user.magaras.410371.aMcAtNloPythia8EvtGen.DAOD_HIGG8D1.e6113_e5984_s3126_r9364_r9315_p3371.2018-03-16_LPa_v05_output.root
user.magaras.364117.Sherpa.DAOD_HIGG8D1.e5299_s3126_r9364_r9315_p3371.2018-03-16_LPa_v05_output.root
user.magaras.410082.MadGraphPythia8EvtGen.DAOD_HIGG8D1.e4404_s3126_r9364_r9315_p3371.2018-03-16_LPa_v05_output.root
user.magaras.364121.Sherpa.DAOD_HIGG8D1.e5299_s3126_r9364_r9315_p3371.2018-03-16_LPa_v05_output.root
user.magaras.410014.PowhegPythiaEvtGen.DAOD_HIGG8D1.e3753_s3126_r9364_r9315_p3371.2018-03-16_LPa_v05_output.root
user.magaras.364509.Sherpa.DAOD_HIGG8D1.e5928_e5984_s3126_r9364_r9315_p3371.2018-03-16_LPa_v05_output.root
user.magaras.364134.Sherpa.DAOD_HIGG8D1.e5307_s3126_r9364_r9315_p3371.2018-03-16_LPa_v05_output.root
user.magaras.364157.Sherpa.DAOD_HIGG8D1.e5340_s3126_r9364_r9315_p3371.2018-03-16_LPa_v05_output.root
user.magaras.364160.Sherpa.DAOD_HIGG8D1.e5340_s3126_r9364_r9315_p3371.2018-03-16_LPa_v05_output.root
user.magaras.364126.Sherpa.DAOD_HIGG8D1.e5299_s3126_r9364_r9315_p3371.2018-03-16_LPa_v05_output.root
user.magaras.364242.Sherpa.DAOD_HIGG8D1.e5887_s3126_r9364_r9315_p3371.2018-03-16_LPa_v05_output.root
user.magaras.364185.Sherpa.DAOD_HIGG8D1.e5340_s3126_r9364_r9315_p3371.2018-03-16_LPa_v05_output.root
user.magaras.341471.PowhegPythia8EvtGen.DAOD_HIGG8D1.e3951_e5984_s3126_r9364_r9315_p3371.2018-03-16_LPa_v05_output.root
user.magaras.364196.Sherpa.DAOD_HIGG8D1.e5340_s3126_r9364_r9315_p3371.2018-03-16_LPa_v05_output.root
user.magaras.410373.aMcAtNloPythia8EvtGen.DAOD_HIGG8D1.e6113_e5984_s3126_r9364_r9315_p3371.2018-03-16_LPa_v05_output.root
user.magaras.364530.Sherpa.DAOD_HIGG8D1.e5928_s3126_r9364_r9315_p3371.2018-03-16_LPa_v05_output.root
user.magaras.364521.Sherpa.DAOD_HIGG8D1.e5928_s3126_r9364_r9315_p3371.2018-03-16_LPa_v05_output.root
user.magaras.410142.Sherpa.DAOD_HIGG8D1.e4686_e5984_s3126_r9364_r9315_p3371.2018-03-16_LPa_v05_output.root
user.magaras.364176.Sherpa.DAOD_HIGG8D1.e5340_s3126_r9364_r9315_p3371.2018-03-16_LPa_v05_output.root
user.magaras.364108.Sherpa.DAOD_HIGG8D1.e5271_s3126_r9364_r9315_p3371.2018-03-16_LPa_v05_output.root
user.magaras.364214.Sherpa.DAOD_HIGG8D1.e5421_s3126_r9364_r9315_p3371.2018-03-16_LPa_v05_output.root
user.magaras.410375.aMcAtNloPythia8EvtGen.DAOD_HIGG8D1.e6113_e5984_s3126_r9364_r9315_p3371.2018-03-16_LPa_v05_output.root
user.magaras.364192.Sherpa.DAOD_HIGG8D1.e5340_s3126_r9364_r9315_p3371.2018-03-16_LPa_v05_output.root
user.magaras.364119.Sherpa.DAOD_HIGG8D1.e5299_s3126_r9364_r9315_p3371.2018-03-16_LPa_v05_output.root
user.magaras.364163.Sherpa.DAOD_HIGG8D1.e5340_s3126_r9364_r9315_p3371.2018-03-16_LPa_v05_output.root
user.magaras.364213.Sherpa.DAOD_HIGG8D1.e5421_s3126_r9364_r9315_p3371.2018-03-16_LPa_v05_output.root
user.magaras.364525.Sherpa.DAOD_HIGG8D1.e5928_s3126_r9364_r9315_p3371.2018-03-16_LPa_v05_output.root
user.magaras.364166.Sherpa.DAOD_HIGG8D1.e5340_s3126_r9364_r9315_p3371.2018-03-16_LPa_v05_output.root
user.magaras.364209.Sherpa.DAOD_HIGG8D1.e5421_s3126_r9364_r9315_p3371.2018-03-16_LPa_v05_output.root
user.magaras.364513.Sherpa.DAOD_HIGG8D1.e5982_s3126_r9364_r9315_p3371.2018-03-16_LPa_v05_output.root
user.magaras.364510.Sherpa.DAOD_HIGG8D1.e5928_s3126_r9364_r9315_p3371.2018-03-16_LPa_v05_output.root
user.magaras.342001.aMcAtNloHppEG.DAOD_HIGG8D1.e4394_e5984_s3126_r9364_r9315_p3371.2018-03-16_LPa_v05_output.root
user.magaras.364156.Sherpa.DAOD_HIGG8D1.e5340_s3126_r9364_r9315_p3371.2018-03-16_LPa_v05_output.root
user.magaras.364100.Sherpa.DAOD_HIGG8D1.e5271_s3126_r9364_r9315_p3371.2018-03-16_LPa_v05_output.root
user.magaras.410144.Sherpa.DAOD_HIGG8D1.e4686_e5984_s3126_r9364_r9315_p3371.2018-03-16_LPa_v05_output.root
user.magaras.364122.Sherpa.DAOD_HIGG8D1.e5299_s3126_r9364_r9315_p3371.2018-03-16_LPa_v05_output.root
user.magaras.410026.PowhegPythiaEvtGen.DAOD_HIGG8D1.e3998_s3126_r9364_r9315_p3371.2018-03-16_LPa_v05_output.root
user.magaras.364102.Sherpa.DAOD_HIGG8D1.e5271_s3126_r9364_r9315_p3371.2018-03-16_LPa_v05_output.root
user.magaras.410374.aMcAtNloPythia8EvtGen.DAOD_HIGG8D1.e6113_e5984_s3126_r9364_r9315_p3371.2018-03-16_LPa_v05_output.root
user.magaras.364183.Sherpa.DAOD_HIGG8D1.e5340_s3126_r9364_r9315_p3371.2018-03-16_LPa_v05_output.root
user.magaras.364529.Sherpa.DAOD_HIGG8D1.e5928_s3126_r9364_r9315_p3371.2018-03-16_LPa_v05_output.root
user.magaras.410011.PowhegPythiaEvtGen.DAOD_HIGG8D1.e3824_s3126_r9364_r9315_p3371.2018-03-16_LPa_v05_output.root
user.magaras.341488.PowhegPythia8EvtGen.DAOD_HIGG8D1.e3951_e5984_s3126_r9364_r9315_p3371.2018-03-16_LPa_v05_output.root
user.magaras.364123.Sherpa.DAOD_HIGG8D1.e5299_s3126_r9364_r9315_p3371.2018-03-16_LPa_v05_output.root
user.magaras.361250.Pythia8B.DAOD_HIGG8D1.e3878_s3126_r9364_r9315_p3371.2018-03-16_LPa_v05_output.root
user.magaras.364191.Sherpa.DAOD_HIGG8D1.e5340_s3126_r9364_r9315_p3371.2018-03-16_LPa_v05_output.root
user.magaras.364168.Sherpa.DAOD_HIGG8D1.e5340_s3126_r9364_r9315_p3371.2018-03-16_LPa_v05_output.root
user.magaras.364158.Sherpa.DAOD_HIGG8D1.e5340_s3126_r9364_r9315_p3371.2018-03-16_LPa_v05_output.root
user.magaras.364112.Sherpa.DAOD_HIGG8D1.e5271_s3126_r9364_r9315_p3371.2018-03-16_LPa_v05_output.root
user.magaras.364504.Sherpa.DAOD_HIGG8D1.e5928_e5984_s3126_r9364_r9315_p3371.2018-03-16_LPa_v05_output.root
user.magaras.410277.aMcAtNloPythia8EvtGen.DAOD_HIGG8D1.e6087_e5984_s3126_r9364_r9315_p3371.2018-03-16_LPa_v05_output.root
user.magaras.410372.aMcAtNloPythia8EvtGen.DAOD_HIGG8D1.e6125_e5984_s3126_r9364_r9315_p3371.2018-03-16_LPa_v05_output.root
user.magaras.364172.Sherpa.DAOD_HIGG8D1.e5340_s3126_r9364_r9315_p3371.2018-03-16_LPa_v05_output.root
user.magaras.364169.Sherpa.DAOD_HIGG8D1.e5340_s3126_r9364_r9315_p3371.2018-03-16_LPa_v05_output.root
user.magaras.364198.Sherpa.DAOD_HIGG8D1.e5421_s3126_r9364_r9315_p3371.2018-03-16_LPa_v05_output.root
user.magaras.364118.Sherpa.DAOD_HIGG8D1.e5299_s3126_r9364_r9315_p3371.2018-03-16_LPa_v05_output.root
user.magaras.364244.Sherpa.DAOD_HIGG8D1.e5887_s3126_r9364_r9315_p3371.2018-03-16_LPa_v05_output.root
user.magaras.410276.aMcAtNloPythia8EvtGen.DAOD_HIGG8D1.e6087_e5984_s3126_r9364_r9315_p3371.2018-03-16_LPa_v05_output.root
user.magaras.364109.Sherpa.DAOD_HIGG8D1.e5271_s3126_r9364_r9315_p3371.2018-03-16_LPa_v05_output.root
user.magaras.341998.aMcAtNloHppEG.DAOD_HIGG8D1.e4394_e5984_s3126_r9364_r9315_p3371.2018-03-16_LPa_v05_output.root
user.magaras.410399.MadGraphPythia8EvtGen.DAOD_HIGG8D1.e6086_e5984_s3126_r9364_r9315_p3371.2018-03-16_LPa_v05_output.root
user.magaras.364532.Sherpa.DAOD_HIGG8D1.e5928_s3126_r9364_r9315_p3371.2018-03-16_LPa_v05_output.root
user.magaras.364136.Sherpa.DAOD_HIGG8D1.e5307_s3126_r9364_r9315_p3371.2018-03-16_LPa_v05_output.root
user.magaras.364107.Sherpa.DAOD_HIGG8D1.e5271_s3126_r9364_r9315_p3371.2018-03-16_LPa_v05_output.root
user.magaras.410397.MadGraphPythia8EvtGen.DAOD_HIGG8D1.e6086_e5984_s3126_r9364_r9315_p3371.2018-03-16_LPa_v05_output.root
user.magaras.364502.Sherpa.DAOD_HIGG8D1.e5928_e5984_s3126_r9364_r9315_p3371.2018-03-16_LPa_v05_output.root
user.magaras.364210.Sherpa.DAOD_HIGG8D1.e5421_s3126_r9364_r9315_p3371.2018-03-16_LPa_v05_output.root
user.magaras.364215.Sherpa.DAOD_HIGG8D1.e5421_s3126_r9364_r9315_p3371.2018-03-16_LPa_v05_output.root
user.magaras.364139.Sherpa.DAOD_HIGG8D1.e5313_s3126_r9364_r9315_p3371.2018-03-16_LPa_v05_output.root
user.magaras.364522.Sherpa.DAOD_HIGG8D1.e5928_s3126_r9364_r9315_p3371.2018-03-16_LPa_v05_output.root
user.magaras.364101.Sherpa.DAOD_HIGG8D1.e5271_s3126_r9364_r9315_p3371.2018-03-16_LPa_v05_output.root
user.magaras.364182.Sherpa.DAOD_HIGG8D1.e5340_s3126_r9364_r9315_p3371.2018-03-16_LPa_v05_output.root
user.magaras.364524.Sherpa.DAOD_HIGG8D1.e5928_s3126_r9364_r9315_p3371.2018-03-16_LPa_v05_output.root
user.magaras.364190.Sherpa.DAOD_HIGG8D1.e5340_s3126_r9364_r9315_p3371.2018-03-16_LPa_v05_output.root
user.magaras.364204.Sherpa.DAOD_HIGG8D1.e5421_s3126_r9364_r9315_p3371.2018-03-16_LPa_v05_output.root
user.magaras.364500.Sherpa.DAOD_HIGG8D1.e5928_e5984_s3126_r9364_r9315_p3371.2018-03-16_LPa_v05_output.root
user.magaras.364512.Sherpa.DAOD_HIGG8D1.e5928_s3126_r9364_r9315_p3371.2018-03-16_LPa_v05_output.root
user.magaras.364174.Sherpa.DAOD_HIGG8D1.e5340_s3126_r9364_r9315_p3371.2018-03-16_LPa_v05_output.root
user.magaras.364188.Sherpa.DAOD_HIGG8D1.e5340_s3126_r9364_r9315_p3371.2018-03-16_LPa_v05_output.root
user.magaras.364505.Sherpa.DAOD_HIGG8D1.e5928_e5984_s3126_r9364_r9315_p3371.2018-03-16_LPa_v05_output.root
user.magaras.364177.Sherpa.DAOD_HIGG8D1.e5340_s3126_r9364_r9315_p3371.2018-03-16_LPa_v05_output.root
user.magaras.364181.Sherpa.DAOD_HIGG8D1.e5340_s3126_r9364_r9315_p3371.2018-03-16_LPa_v05_output.root
user.magaras.410376.aMcAtNloPythia8EvtGen.DAOD_HIGG8D1.e6113_e5984_s3126_r9364_r9315_p3371.2018-03-16_LPa_v05_output.root
user.magaras.364165.Sherpa.DAOD_HIGG8D1.e5340_s3126_r9364_r9315_p3371.2018-03-16_LPa_v05_output.root
user.magaras.410251.Sherpa.DAOD_HIGG8D1.e5450_s3126_r9364_r9315_p3371.2018-03-16_LPa_v05_output.root
user.magaras.364247.Sherpa.DAOD_HIGG8D1.e5887_s3126_r9364_r9315_p3371.2018-03-16_LPa_v05_output.root
user.magaras.364189.Sherpa.DAOD_HIGG8D1.e5340_s3126_r9364_r9315_p3371.2018-03-16_LPa_v05_output.root
user.magaras.364523.Sherpa.DAOD_HIGG8D1.e5928_s3126_r9364_r9315_p3371.2018-03-16_LPa_v05_output.root
user.magaras.364104.Sherpa.DAOD_HIGG8D1.e5271_s3126_r9364_r9315_p3371.2018-03-16_LPa_v05_output.root
user.magaras.364131.Sherpa.DAOD_HIGG8D1.e5307_s3126_r9364_r9315_p3371.2018-03-16_LPa_v05_output.root
user.magaras.410398.MadGraphPythia8EvtGen.DAOD_HIGG8D1.e6086_e5984_s3126_r9364_r9315_p3371.2018-03-16_LPa_v05_output.root
user.magaras.364248.Sherpa.DAOD_HIGG8D1.e5887_s3126_r9364_r9315_p3371.2018-03-16_LPa_v05_output.root
user.magaras.364243.Sherpa.DAOD_HIGG8D1.e5887_s3126_r9364_r9315_p3371.2018-03-16_LPa_v05_output.root
user.magaras.410544.PowhegPythia8EvtGen.DAOD_HIGG8D1.e6147_e5984_s3126_r9364_r9315_p3371.2018-03-16_LPa_v05_output.root
user.magaras.364212.Sherpa.DAOD_HIGG8D1.e5421_s3126_r9364_r9315_p3371.2018-03-16_LPa_v05_output.root
user.magaras.364246.Sherpa.DAOD_HIGG8D1.e5887_s3126_r9364_r9315_p3371.2018-03-16_LPa_v05_output.root
user.magaras.364197.Sherpa.DAOD_HIGG8D1.e5340_s3126_r9364_r9315_p3371.2018-03-16_LPa_v05_output.root
user.magaras.342004.aMcAtNloHppEG.DAOD_HIGG8D1.e4394_e5984_s3126_r9364_r9315_p3371.2018-03-16_LPa_v05_output.root
user.magaras.410016.PowhegPythiaEvtGen.DAOD_HIGG8D1.e3753_e5984_s3126_r9364_r9315_p3371.2018-03-16_LPa_v05_output.root
user.magaras.410250.Sherpa.DAOD_HIGG8D1.e5450_s3126_r9364_r9315_p3371.2018-03-16_LPa_v05_output.root
user.magaras.364164.Sherpa.DAOD_HIGG8D1.e5340_s3126_r9364_r9315_p3371.2018-03-16_LPa_v05_output.root
user.magaras.364203.Sherpa.DAOD_HIGG8D1.e5421_s3126_r9364_r9315_p3371.2018-03-16_LPa_v05_output.root
user.magaras.364111.Sherpa.DAOD_HIGG8D1.e5271_s3126_r9364_r9315_p3371.2018-03-16_LPa_v05_output.root
user.magaras.364105.Sherpa.DAOD_HIGG8D1.e5271_s3126_r9364_r9315_p3371.2018-03-16_LPa_v05_output.root
user.magaras.364120.Sherpa.DAOD_HIGG8D1.e5299_s3126_r9364_r9315_p3371.2018-03-16_LPa_v05_output.root
user.magaras.410013.PowhegPythiaEvtGen.DAOD_HIGG8D1.e3753_s3126_r9364_r9315_p3371.2018-03-16_LPa_v05_output.root
user.magaras.364125.Sherpa.DAOD_HIGG8D1.e5299_s3126_r9364_r9315_p3371.2018-03-16_LPa_v05_output.root
user.magaras.343270.MadGraphPythia8EvtGen.DAOD_HIGG8D1.e4610_e5984_s3126_r9364_r9315_p3371.2018-03-16_LPa_v05_output.root
user.magaras.364533.Sherpa.DAOD_HIGG8D1.e5928_s3126_r9364_r9315_p3371.2018-03-16_LPa_v05_output.root
user.magaras.364194.Sherpa.DAOD_HIGG8D1.e5340_s3126_r9364_r9315_p3371.2018-03-16_LPa_v05_output.root
user.magaras.364199.Sherpa.DAOD_HIGG8D1.e5421_s3126_r9364_r9315_p3371.2018-03-16_LPa_v05_output.root
user.magaras.364508.Sherpa.DAOD_HIGG8D1.e5928_e5984_s3126_r9364_r9315_p3371.2018-03-16_LPa_v05_output.root
user.magaras.364137.Sherpa.DAOD_HIGG8D1.e5307_s3126_r9364_r9315_p3371.2018-03-16_LPa_v05_output.root
user.magaras.341270.aMcAtNloHerwigppEvtGen.DAOD_HIGG8D1.e4277_s3126_r9364_r9315_p3371.2018-03-16_LPa_v05_output.root
user.magaras.410015.PowhegPythiaEvtGen.DAOD_HIGG8D1.e3753_e5984_s3126_r9364_r9315_p3371.2018-03-16_LPa_v05_output.root
user.magaras.364106.Sherpa.DAOD_HIGG8D1.e5271_s3126_r9364_r9315_p3371.2018-03-16_LPa_v05_output.root
user.magaras.342285.Pythia8EvtGen.DAOD_HIGG8D1.e4246_s3126_r9364_r9315_p3371.2018-03-16_LPa_v05_output.root
user.magaras.304014.MadGraphPythia8EvtGen.DAOD_HIGG8D1.e4324_s3126_r9364_r9315_p3371.2018-03-16_LPa_v05_output.root
user.magaras.364178.Sherpa.DAOD_HIGG8D1.e5340_s3126_r9364_r9315_p3371.2018-03-16_LPa_v05_output.root
user.magaras.342282.PowhegPythia8EvtGen.DAOD_HIGG8D1.e4850_s3126_r9364_r9315_p3371.2018-03-16_LPa_v05_output.root
user.magaras.364128.Sherpa.DAOD_HIGG8D1.e5307_s3126_r9364_r9315_p3371.2018-03-16_LPa_v05_output.root
user.magaras.364140.Sherpa.DAOD_HIGG8D1.e5307_s3126_r9364_r9315_p3371.2018-03-16_LPa_v05_output.root
user.magaras.364129.Sherpa.DAOD_HIGG8D1.e5307_s3126_r9364_r9315_p3371.2018-03-16_LPa_v05_output.root
user.magaras.364193.Sherpa.DAOD_HIGG8D1.e5340_s3126_r9364_r9315_p3371.2018-03-16_LPa_v05_output.root
user.magaras.364171.Sherpa.DAOD_HIGG8D1.e5340_s3126_r9364_r9315_p3371.2018-03-16_LPa_v05_output.root
user.magaras.364110.Sherpa.DAOD_HIGG8D1.e5271_s3126_r9364_r9315_p3371.2018-03-16_LPa_v05_output.root
user.magaras.364528.Sherpa.DAOD_HIGG8D1.e5928_s3126_r9364_r9315_p3371.2018-03-16_LPa_v05_output.root
user.magaras.343273.MadGraphPythia8EvtGen.DAOD_HIGG8D1.e4606_e5984_s3126_r9364_r9315_p3371.2018-03-16_LPa_v05_output.root
user.magaras.364195.Sherpa.DAOD_HIGG8D1.e5340_s3126_r9364_r9315_p3371.2018-03-16_LPa_v05_output.root
user.magaras.364141.Sherpa.DAOD_HIGG8D1.e5307_s3126_r9364_r9315_p3371.2018-03-16_LPa_v05_output.root
user.magaras.364127.Sherpa.DAOD_HIGG8D1.e5299_s3126_r9364_r9315_p3371.2018-03-16_LPa_v05_output.root
user.magaras.410012.PowhegPythiaEvtGen.DAOD_HIGG8D1.e3824_s3126_r9364_r9315_p3371.2018-03-16_LPa_v05_output.root
user.magaras.342284.Pythia8EvtGen.DAOD_HIGG8D1.e4246_s3126_r9364_r9315_p3371.2018-03-16_LPa_v05_output.root
user.magaras.342283.PowhegPythia8EvtGen.DAOD_HIGG8D1.e4246_s3126_r9364_r9315_p3371.2018-03-16_LPa_v05_output.root
user.magaras.364514.Sherpa.DAOD_HIGG8D1.e5928_s3126_r9364_r9315_p3371.2018-03-16_LPa_v05_output.root
user.magaras.364130.Sherpa.DAOD_HIGG8D1.e5307_s3126_r9364_r9315_p3371.2018-03-16_LPa_v05_output.root
user.magaras.364205.Sherpa.DAOD_HIGG8D1.e5421_s3126_r9364_r9315_p3371.2018-03-16_LPa_v05_output.root
user.magaras.364115.Sherpa.DAOD_HIGG8D1.e5299_s3126_r9364_r9315_p3371.2018-03-16_LPa_v05_output.root
user.magaras.364113.Sherpa.DAOD_HIGG8D1.e5271_s3126_r9364_r9315_p3371.2018-03-16_LPa_v05_output.root
user.magaras.364206.Sherpa.DAOD_HIGG8D1.e5421_s3126_r9364_r9315_p3371.2018-03-16_LPa_v05_output.root
user.magaras.364170.Sherpa.DAOD_HIGG8D1.e5340_s3126_r9364_r9315_p3371.2018-03-16_LPa_v05_output.root
user.magaras.410252.Sherpa.DAOD_HIGG8D1.e5450_s3126_r9364_r9315_p3371.2018-03-16_LPa_v05_output.root
user.magaras.410143.Sherpa.DAOD_HIGG8D1.e4686_e5984_s3126_r9364_r9315_p3371.2018-03-16_LPa_v05_output.root
user.magaras.364135.Sherpa.DAOD_HIGG8D1.e5307_s3126_r9364_r9315_p3371.2018-03-16_LPa_v05_output.root
user.magaras.364180.Sherpa.DAOD_HIGG8D1.e5340_s3126_r9364_r9315_p3371.2018-03-16_LPa_v05_output.root
user.magaras.364124.Sherpa.DAOD_HIGG8D1.e5299_s3126_r9364_r9315_p3371.2018-03-16_LPa_v05_output.root
user.magaras.364173.Sherpa.DAOD_HIGG8D1.e5340_s3126_r9364_r9315_p3371.2018-03-16_LPa_v05_output.root
user.magaras.410370.aMcAtNloPythia8EvtGen.DAOD_HIGG8D1.e6113_e5984_s3126_r9364_r9315_p3371.2018-03-16_LPa_v05_output.root
