304014.root
341998.root
342282.root
342283.root
342284.root
342285.root
343366.root
343367.root
344388.root
345708.root
345716.root
345865.root
345866.root
345873.root
345874.root
345875.root
363355.root
363356.root
363358.root
363359.root
363360.root
363489.root
364100.root
364101.root
364102.root
364103.root
364104.root
364105.root
364106.root
364107.root
364108.root
364109.root
364110.root
364111.root
364112.root
364113.root
364114.root
364115.root
364116.root
364117.root
364118.root
364119.root
364120.root
364121.root
364122.root
364123.root
364124.root
364125.root
364126.root
364127.root
364128.root
364129.root
364130.root
364131.root
364132.root
364133.root
364134.root
364135.root
364136.root
364137.root
364138.root
364139.root
364140.root
364141.root
364156.root
364157.root
364158.root
364159.root
364160.root
364162.root
364163.root
364164.root
364165.root
364166.root
364167.root
364168.root
364169.root
364170.root
364171.root
364172.root
364173.root
364174.root
364175.root
364176.root
364177.root
364178.root
364179.root
364180.root
364181.root
364182.root
364183.root
364184.root
364185.root
364186.root
364187.root
364188.root
364189.root
364190.root
364191.root
364192.root
364193.root
364194.root
364195.root
364196.root
364197.root
364198.root
364199.root
364200.root
364201.root
364202.root
364203.root
364204.root
364205.root
364207.root
364208.root
364213.root
364242.root
364243.root
364244.root
364245.root
364246.root
364247.root
364248.root
364249.root
364250.root
364253.root
364254.root
364255.root
364283.root
364284.root
364285.root
364286.root
364287.root
364500.root
364501.root
364502.root
364503.root
364504.root
364505.root
364507.root
364508.root
364509.root
364510.root
364511.root
364512.root
364513.root
364514.root
364521.root
364522.root
364523.root
364524.root
364525.root
364526.root
364527.root
364528.root
364529.root
364530.root
364531.root
364532.root
364533.root
364534.root
364535.root
410013.root
410014.root
410015.root
410016.root
410025.root
410080.root
410081.root
410082.root
410142.root
410143.root
410144.root
410155.root
410156.root
410157.root
410218.root
410219.root
410220.root
410250.root
410251.root
410252.root
410276.root
410277.root
410370.root
410371.root
410372.root
410373.root
410374.root
410375.root
410376.root
410377.root
410397.root
410398.root
410399.root
410408.root
410470.root
410471.root
410472.root
410503.root
410560.root
410644.root
410645.root
410658.root
410659.root
