342284.root
342004.root
341998.root
342285.root
361097.root
361627.root
342283.root
342282.root
343270.root
343267.root
361089.root
361088.root
361077.root
364180.root
341271.root
361070.root
361069.root
361626.root
361623.root
364169.root
361091.root
364173.root
361072.root
361093.root
343367.root
364170.root
361064.root
342172.root
364101.root
361094.root
364139.root
361065.root
364162.root
344424.root
344430.root
364178.root
364159.root
343273.root
344428.root
361066.root
344426.root
361621.root
364161.root
364111.root
364140.root
341471.root
361067.root
344425.root
344429.root
342001.root
361096.root
341488.root
364136.root
344422.root
361068.root
364114.root
344427.root
364134.root
344431.root
361073.root
344367_AFII.root
344369_AFII.root
364133.root
364119.root
341270.root
410220.root
344423.root
342171.root
361071.root
344133_AFII.root
342170.root
344134_AFII.root
344365_AFII.root
343366.root
344366_AFII.root
344364_AFII.root
410144_AFII.root
410155_AFII.root
410155.root
410142_AFII.root
301535.root
301536.root
301887.root
301888.root
301889.root
301890.root
301891.root
301892.root
301893.root
301894.root
301895.root
301896.root
301897.root
301898.root
301899.root
301900.root
301901.root
301902.root
301903.root
301904.root
301905.root
301906.root
301907.root
301908.root
301909.root
301910.root
304014_AFII.root
304776.root
361092.root
361095.root
361622.root
361624.root
361625.root
364100.root
364102.root
364103.root
364104.root
364105.root
364106.root
364107.root
364108.root
364109.root
364110.root
364112.root
364113.root
364115.root
364116.root
364117.root
364118.root
364120.root
364121.root
364122.root
364123.root
364124.root
364125.root
364126.root
364127.root
364128.root
364129.root
364130.root
364131.root
364132.root
364137.root
364138.root
364141.root
364156.root
364157.root
364158.root
364160.root
364163.root
364164.root
364165.root
364166.root
364167.root
364168.root
364171.root
364172.root
364174.root
364175.root
364176.root
364177.root
364179.root
364181.root
364182.root
364183.root
364184.root
364185.root
364186.root
364187.root
364188.root
364189.root
364190.root
364191.root
364192.root
364193.root
364194.root
364195.root
364196.root
364197.root
364198.root
364199.root
364200.root
364201.root
364202.root
364203.root
364204.root
364205.root
364206.root
364207.root
364208.root
364209.root
364210.root
364211.root
364212.root
364213.root
364214.root
364215.root
410011.root
410012.root
410013.root
410014.root
410015.root
410016.root
410025.root
410026.root
410050.root
410080.root
410081.root
410082.root
410143_AFII.root
410156.root
410156_AFII.root
410157.root
410157_AFII.root
410215.root
410220_AFII.root
410225_AFII.root
410226_AFII.root
410250.root
410251.root
410252.root
410511_AFII.root
410512_AFII.root
343243.root
361620.root
344368_AFII.root
364135.root
361063.root
410049.root
341177.root
343365.root
410218_AFII.root
410219_AFII.root
410218.root
410219.root
