00276262.root
00276329.root
00276336.root
00276416.root
00276511.root
00276689.root
00276778.root
00276790.root
00276952.root
00276954.root
00278880.root
00278912.root
00278968.root
00279169.root
00279259.root
00279279.root
00279284.root
00279345.root
00279515.root
00279598.root
00279685.root
00279813.root
00279867.root
00279928.root
00279932.root
00279984.root
00280231.root
00280273.root
00280319.root
00280368.root
00280423.root
00280464.root
00280500.root
00280520.root
00280614.root
00280673.root
00280753.root
00280853.root
00280862.root
00280950.root
00280977.root
00281070.root
00281074.root
00281075.root
00281317.root
00281385.root
00281411.root
00282625.root
00282631.root
00282712.root
00282784.root
00282992.root
00283074.root
00283155.root
00283270.root
00283429.root
00283608.root
00283780.root
00284006.root
00284154.root
00284213.root
00284285.root
00284420.root
00284427.root
00284484.root
00297730.root
00298595.root
00298609.root
00298633.root
00298687.root
00298690.root
00298771.root
00298773.root
00298862.root
00298967.root
00299055.root
00299144.root
00299147.root
00299184.root
00299243.root
00299584.root
00300279.root
00300345.root
00300415.root
00300418.root
00300487.root
00300540.root
00300571.root
00300600.root
00300655.root
00300687.root
00300784.root
00300800.root
00300863.root
00300908.root
00301912.root
00301918.root
00301932.root
00301973.root
00302053.root
00302137.root
00302265.root
00302269.root
00302300.root
00302347.root
00302380.root
00302391.root
00302393.root
00302737.root
00302831.root
00302872.root
00302919.root
00302925.root
00302956.root
00303007.root
00303079.root
00303201.root
00303208.root
00303264.root
00303266.root
00303291.root
00303304.root
00303338.root
00303421.root
00303499.root
00303560.root
00303638.root
00303832.root
00303846.root
00303892.root
00303943.root
00304006.root
00304008.root
00304128.root
00304178.root
00304198.root
00304211.root
00304243.root
00304308.root
00304337.root
00304409.root
00304431.root
00304494.root
00305380.root
00305543.root
00305571.root
00305618.root
00305671.root
00305674.root
00305723.root
00305727.root
00305735.root
00305777.root
00305811.root
00305920.root
00306269.root
00306278.root
00306310.root
00306384.root
00306419.root
00306442.root
00306448.root
00306451.root
00307126.root
00307195.root
00307259.root
00307306.root
00307354.root
00307358.root
00307394.root
00307454.root
00307514.root
00307539.root
00307569.root
00307601.root
00307619.root
00307656.root
00307710.root
00307716.root
00307732.root
00307861.root
00307935.root
00308047.root
00308084.root
00309375.root
00309390.root
00309440.root
00309516.root
00309640.root
00309674.root
00309759.root
00310015.root
00310247.root
00310249.root
00310341.root
00310370.root
00310405.root
00310468.root
00310473.root
00310634.root
00310691.root
00310738.root
00310809.root
00310863.root
00310872.root
00310969.root
00311071.root
00311170.root
00311244.root
00311287.root
00311321.root
00311365.root
00311402.root
00311473.root
00311481.root
